id,collection,dc.title[en_US],dc.contributor.author[en_US],dc.description.abstract[en_US],dc.publisher,dc.date.issued,dc.identifier.doi,dc.identifier.issn,dc.subject,dc.language,dc.type,dc.publisher.volume,dc.publisher.issue,dc.publisher.page,dc.identifier.uri
[Manual],[Manual],Public health terminology: Hindrance to a Health in All Policies approach?,"""Synnevåg, Ellen S||Amdam, Roar||Fosse, Elisabeth""","AIM: National public health policies in Norway are based on a Health in All Policies (HiAP) approach. At the local level, this means that public health, as a cross-sectional responsibility, should be implemented in all municipal sectors by integrating public health policies in municipal planning and management systems. The paper investigates these local processes, focusing on the use of public health terminology and how this terminology is translated from national to local contexts. We ask whether the terms 'public health' and 'public health work' are suitable when implementing an HiAP approach. METHODS: A qualitative case study based on analyses of interviews and planning documents was performed in three Norwegian municipalities. RESULTS: The results present dilemmas associated with using public health terminology when implementing an HiAP approach. On the one hand, the terms are experienced as wide, complex, advanced and unnecessary. On the other hand, the terms are experienced as important for a systematic approach towards understanding public health ideology and cross-sectional responsibility. One municipality used alternative terminology. CONCLUSIONS: This paper promotes debate about the appropriateness of using the terms 'public health' and 'public health work' at the local level. It suggests that adaptation is suitable and necessary, unless it compromises knowledge, responsibility and a systematic approach. This study concludes that the use of terminology is a central factor when implementing the Norwegian Public Health Act at the local level.",Scand J Public Health,2018 Feb,10.1177/1403494817729921 ,1651-1905 (Electronic),[Manual],eng,Review||Book||Journal Article,46,1,'68-73',[Manual]
[Manual],[Manual],Current status of master of public health programmes in India: a scoping review.,"""Tiwari, Ritika||Negandhi, Himanshu||Zodpey, Sanjay""","There is a recognized need to improve training in public health in India. Currently, several Indian institutions and universities offer the Master of Public Health (MPH) programme. However, in the absence of any formal body or council for regulating public health education in the country, there is limited information available on these programmes. This scoping review was therefore undertaken to review the current status of MPH programmes in India. Information on MPH programmes was obtained using a two-step process. First, a list of all institutions offering MPH programmes in India was compiled by use of an internet and literature search. Second, detailed information on each programme was collected via an internet and literature search and through direct contact with the institutions and recognized experts in public health education. Between 1997 and 2016-2017, the number of institutions offering MPH programmes increased from 2 to 44. The eligibility criteria for the MPH programmes are variable. All programmes include some field experience. The ratio of faculty number to students enrolled ranged from 1:0.1 to 1:42. In the 2016-2017 academic year, 1190 places were being offered on MPH programmes but only 704 students were enrolled. MPH programmes being offered in India have witnessed a rapid expansion in the past two decades. This growth in supply of public health graduates is not yet matched by an increased demand. Despite the recognized need to strengthen the public health workforce in India, there is no clearly defined career pathway for MPH graduates in the national public health infrastructure. Institutions and public health bodies must collaborate to design and deliver MPH programmes to overcome the shortage of public health professionals, such that the development goals for India might be met.",WHO South East Asia J Public Health,2018 Apr,10.4103/2224-3151.228425 ,2304-5272 (Electronic),[Manual],eng,Journal Article||Review,7,1,'29-35',[Manual]
[Manual],[Manual],Migration: a core public health ethics issue.,"""Wild, V||Dawson, A""","OBJECTIVES: In this article, we outline the link between migration, public health and ethics. STUDY DESIGN: Discussing relevant arguments about migration from the perspective of public health and public health ethics. METHODS: Critical review of theories and frameworks, case-based analysis and systematic identification and discussion of challenges. RESULTS: Migration is a core issue of public health ethics and must take a case-based approach: seeking to identify the specific ethical dimensions and vulnerabilities in each particular context. Public health as a practice, built upon the core value of justice, requires the protection and promotion of migrants' well-being (even if this produces tension with immigration services). Ethical analysis should take all phases of migration into account: before, during and after transit. We argue that migration policies, at least as they relate to migrants' well-being, should be founded upon a shared humanity, respect for human rights and on the idea that effective public health cannot and should not be confined within the borders and to the citizens of any host country. CONCLUSIONS: We make the case for migration to be seen as a core issue of public health ethics.",Public Health,2018 May,10.1016/j.puhe.2018.02.023 ,1476-5616 (Electronic),[Manual],eng,Journal Article,[Format berbeda] Public Health. 2018 May;158:66-70. doi: 10.1016/j.puhe.2018.02.023. Epub 2018 Mar 30.,[Format berbeda] Public Health. 2018 May;158:66-70. doi: 10.1016/j.puhe.2018.02.023. Epub 2018 Mar 30.,'66-70',[Manual]
[Manual],[Manual],Public health practitioners' perspectives of migrant health in an English region.,"""Staniforth, R||Such, E""","OBJECTIVES: Migration is a complex and contested topic of public debate. Professionals working in public health must negotiate this politicised complexity, yet few studies examine the perspectives and practices of public health professionals in relation to migrant health. This study seeks to redress this by exploring how migrant health is conceptualised and addressed by public health professionals after a key transitional point in the reorganisation of public health in England and the public vote for the UK to leave the EU. STUDY DESIGN: This is a qualitative in-depth exploratory study. METHODS: Ten interviews and one focus group were conducted with 14 public health professionals working at Public Health England or local authorities in an English region. Recordings were transcribed, and thematic analysis was conducted. RESULTS: Professionals viewed migrant health mainly through a health inequalities lens; migrants were considered vulnerable, and their health was often determined by wider social issues. This influenced public health professionals' perceived ability to affect change. Public health professionals were greatly influenced by the societal, policy and institutional, post-Brexit vote context in England, describing nervousness around addressing migrant health. At an institutional level, public health professionals described a sense that migrant health was not prioritised. It was considered 'too hard' and complex, especially with shrinking resources and highly politicised social narratives. Consequently, migrant health was often not directly addressed in current practice. The gaps identified by public health professionals were as follows: lack of knowledge of health needs and cultural difference; lack of access to appropriate training; lack of cultural diversity within the public health workforce; and concerns about meaningful community engagement. CONCLUSIONS: These findings raise concerns about public health professionals' ability to address the health needs of migrants living in England. The gaps highlighted require further and deeper examination across relevant organisations including the broader public health infrastructure in the UK.",Public Health,2019 Oct,10.1016/j.puhe.2019.06.019 ,1476-5616 (Electronic),[Manual],eng,Journal Article,[Format berbeda] Public Health. 2019 Oct;175:79-86. doi: 10.1016/j.puhe.2019.06.019. Epub 2019 Aug 20.,[Format berbeda] Public Health. 2019 Oct;175:79-86. doi: 10.1016/j.puhe.2019.06.019. Epub 2019 Aug 20.,'79-86',[Manual]
[Manual],[Manual],Undergraduate Public Health Capstone Course: Teaching Evidence-Based Public Health.,"""Fitzpatrick, Veronica Eileen||Mayer, Christen||Sherman, Barry R""","The University at Albany School of Public Health has offered a Bachelor of Science in Public Health (BSPH) degree for the past 7 years. The final requirement of the BSPH degree is a capstone evidence-based public health class designed to culminate the degree program. This capstone course is framed by identifying a public health problem and creating a literature review based on this problem. The issues are selected through collaboration between the students and instructors. Developmental and analytical tools necessary to complete the literature review are provided throughout the semester. By the end of the course, students achieve the necessary competencies and skills to identify a public health problem, analyze information from peer-reviewed literature, and synthesize the relationship between a health issue and its correlated outcome. Successes were measured through achievement of core BSPH competencies, quality of final paper and presentation, and qualitative data gleaned from end of semester self-reported student surveys.",Front Public Health,2016,70,2296-2565 (Print),[Manual],eng,Journal Article||Review,[Format berbeda] Front Public Health. 2016 Apr 18;4:70. doi: 10.3389/fpubh.2016.00070. eCollection 2016.,[Format berbeda] Front Public Health. 2016 Apr 18;4:70. doi: 10.3389/fpubh.2016.00070. eCollection 2016.,'70',[Manual]
[Manual],[Manual],Uses of oral history and digital storytelling in public health research and practice.,"""Tsui, E K||Starecheski, A""","OBJECTIVES: Oral history (OH) and digital storytelling (DST) have been used in a range of ways in public health, including educating populations about health-protecting practices, advocating for improved clinical care and reflecting on public health efforts to combat infectious disease. Yet, these methods are rarely recognized for their potential to contribute to public health research and practice. The aim of this article is to assess how OH and DST have been used in the health fields and to provide examples of ways that these methods have contributed to work in several domains of public health. STUDY DESIGN: Narrative review. METHODS: We conducted a narrative review of articles gathered from PubMed using the search terms 'oral history' and 'digital storytelling', which resulted in 102 articles relevant to public health. We then conducted a thematic analysis to create a typology of article topics and to examine cross-cutting themes. RESULTS: OH and DST have been used for both research and interventions in public health. Specifically, they have been used to 1) examine health risks and experiences; 2) engage and educate populations; 3) educate clinical professionals and organizations; and 4) inform public health practice. CONCLUSIONS: Despite the time, resources, and training required to do OH and DST well, we argue that these methods have substantial potential for supplementing public health activities, allowing the field to glean additional lessons from its experiences, to educate its practitioners further, and to better learn from the experiences of communities affected by public health problems.",Public Health,2018 Jan,10.1016/j.puhe.2017.10.008 ,1476-5616 (Electronic),[Manual],eng,Journal Article||Review,[Format berbeda] Public Health. 2018 Jan;154:24-30. doi: 10.1016/j.puhe.2017.10.008. Epub 2017 Nov 15.,[Format berbeda] Public Health. 2018 Jan;154:24-30. doi: 10.1016/j.puhe.2017.10.008. Epub 2017 Nov 15.,'24-30',[Manual]
[Manual],[Manual],Dental Public Health In Action: Putting Oral Health on the Local Public Health Agenda.,"""Walker, I F||Eapen-Simon, S||Gibson, S""","Oral health is a key public health issue across England. In Wakefield in the north of England, local data suggested the oral health of local children was significantly worse than the national average. This paper describes the work undertaken by Wakefield Council to strategically address this issue. A structured process was adopted. Key lessons include; having senior ownership from the Director of Public Health, partnership working across all key stakeholders, utilising dental public health expertise from Public Health England and the use of extensive engagement with stakeholders. Through this work, oral health is now identified with greater importance in Wakefield as a public health issue. Actions are now strategically co-ordinated across stakeholders to improve oral health in local children.",Community Dent Health,2018 Aug 30,10.1922/CDH_4068Walker04 ,0265-539X (Print),[Manual],eng,Journal Article,35,3,'132-135',[Manual]
[Manual],[Manual],A collective voice for advancing public health: why public health associations matter today.,"""""","We reflect on why public health matters today from the perspective of Canada's provincial, territorial, and national public health associations. As independent, non-profit organizations that transcend professional roles and sectors, public health associations are positioned to play an essential role in strengthening public health, broadly speaking, across Canada. We outline three reasons why public health associations matter today. First, public health associations are uniquely positioned to champion a public health perspective. Second, they represent and connect a diverse range of roles, professions, and stakeholders involved in public health. Finally, they are positioned for advocacy, providing a platform for participation to those who may not otherwise be able to engage but who understand the importance of a collective voice. These reasons why public health associations are important are not new, but arguably carry renewed importance in the context of a contemporary public health landscape characterized by, among other things, weakened formal public health infrastructure, neoliberal agendas and individualism, and public health imperatives such as growing economic and social inequity and ecological determinants of health that require intersectoral responses.",Can J Public Health,2019 Jun,10.17269/s41997-019-00197-1 ,1920-7476 (Electronic),[Manual],eng,Journal Article,110,3,'335-339',[Manual]
[Manual],[Manual],Changes in Local Public Health System Performance Before and After Attainment of National Accreditation Standards.,"""Ingram, Richard C||Mays, Glen P||Kussainov, Nurlan""","OBJECTIVE: The aim of this study is to investigate the impact of Public Health Accreditation Board (PHAB) accreditation on the delivery of public health services and on participation from other sectors in the delivery of public health services in local public health systems. DESIGN: This study uses a longitudinal repeated measures design to identify differences between a cohort of public health systems containing PHAB-accredited local health departments and a cohort of public health systems containing unaccredited local health departments. It uses data spanning from 2006 to 2016. SETTING: This study examines a cohort of local public health systems that serves large populations and contains unaccredited and PHAB-accredited local health departments. PARTICIPANTS: Data in this study were collected from the directors of health departments that include local public health systems followed in the National Longitudinal Study of Public Health Systems. INTERVENTION: The intervention examined is PHAB accreditation. MAIN OUTCOME MEASURES: The study focuses on 4 areas: the delivery of core public health services, local health department contribution toward these services, participation in the delivery of these services by other members of the public health system, and public health system makeup. RESULTS: Prior to the advent of accreditation, public health systems containing local health departments that were later accredited by PHAB appear quite similar to their unaccredited peers. Substantial differences between the 2 cohorts appear to manifest themselves after the advent of accreditation. Specifically, the accredited cohort seems to offer a broader array of public health services, involve more partners in the delivery of those services, and enjoy a higher percentage of comprehensive public health systems. CONCLUSIONS: The results of this study suggest that accreditation may yield significant benefits and may help public health systems develop the public health system capital necessary to protect and promote the public's health.",J Public Health Manag Pract,2018 May/Jun,10.1097/PHH.0000000000000766 ,1550-5022 (Electronic),[Manual],eng,"Journal Article||Research Support, Non-U.S. Gov't||Research Support, U.S. Gov't, P.H.S.",[Format berbeda] J Public Health Manag Pract. 2018 May/Jun;24 Suppl 3:S25-S34. doi: 10.1097/PHH.0000000000000766.,[Format berbeda] J Public Health Manag Pract. 2018 May/Jun;24 Suppl 3:S25-S34. doi: 10.1097/PHH.0000000000000766.,'S25-S34',[Manual]
