([('keylogger.exe',
   'C:\\Users\\gemap\\Desktop\\build\\keylogger\\keylogger.exe',
   'EXECUTABLE'),
  ('keylogger.exe.manifest',
   'C:\\Users\\gemap\\Desktop\\build\\keylogger\\keylogger.exe.manifest',
   'BINARY'),
  ('VCRUNTIME140.dll',
   'c:\\users\\gemap\\appdata\\local\\programs\\python\\python36\\VCRUNTIME140.dll',
   'BINARY'),
  ('python36.dll',
   'c:\\users\\gemap\\appdata\\local\\programs\\python\\python36\\python36.dll',
   'BINARY'),
  ('select',
   'c:\\users\\gemap\\appdata\\local\\programs\\python\\python36\\DLLs\\select.pyd',
   'EXTENSION'),
  ('_socket',
   'c:\\users\\gemap\\appdata\\local\\programs\\python\\python36\\DLLs\\_socket.pyd',
   'EXTENSION'),
  ('_lzma',
   'c:\\users\\gemap\\appdata\\local\\programs\\python\\python36\\DLLs\\_lzma.pyd',
   'EXTENSION'),
  ('_bz2',
   'c:\\users\\gemap\\appdata\\local\\programs\\python\\python36\\DLLs\\_bz2.pyd',
   'EXTENSION'),
  ('_hashlib',
   'c:\\users\\gemap\\appdata\\local\\programs\\python\\python36\\DLLs\\_hashlib.pyd',
   'EXTENSION'),
  ('_ssl',
   'c:\\users\\gemap\\appdata\\local\\programs\\python\\python36\\DLLs\\_ssl.pyd',
   'EXTENSION'),
  ('pyexpat',
   'c:\\users\\gemap\\appdata\\local\\programs\\python\\python36\\DLLs\\pyexpat.pyd',
   'EXTENSION'),
  ('unicodedata',
   'c:\\users\\gemap\\appdata\\local\\programs\\python\\python36\\DLLs\\unicodedata.pyd',
   'EXTENSION'),
  ('_ctypes',
   'c:\\users\\gemap\\appdata\\local\\programs\\python\\python36\\DLLs\\_ctypes.pyd',
   'EXTENSION'),
  ('base_library.zip',
   'C:\\Users\\gemap\\Desktop\\build\\keylogger\\base_library.zip',
   'DATA')],)
