('C:\\Users\\gemap\\Desktop\\build\\keylogger\\PKG-00.pkg',
 {'BINARY': 1,
  'DATA': 1,
  'EXECUTABLE': 1,
  'EXTENSION': 1,
  'PYMODULE': 1,
  'PYSOURCE': 1,
  'PYZ': 0},
 [('PYZ-00.pyz',
   'C:\\Users\\gemap\\Desktop\\build\\keylogger\\PYZ-00.pyz',
   'PYZ'),
  ('struct',
   'c:\\users\\gemap\\appdata\\local\\programs\\python\\python36\\lib\\struct.pyo',
   'PYMODULE'),
  ('pyimod01_os_path',
   'c:\\users\\gemap\\appdata\\local\\programs\\python\\python36\\lib\\site-packages\\PyInstaller\\loader\\pyimod01_os_path.pyc',
   'PYMODULE'),
  ('pyimod02_archive',
   'c:\\users\\gemap\\appdata\\local\\programs\\python\\python36\\lib\\site-packages\\PyInstaller\\loader\\pyimod02_archive.pyc',
   'PYMODULE'),
  ('pyimod03_importers',
   'c:\\users\\gemap\\appdata\\local\\programs\\python\\python36\\lib\\site-packages\\PyInstaller\\loader\\pyimod03_importers.pyc',
   'PYMODULE'),
  ('pyiboot01_bootstrap',
   'c:\\users\\gemap\\appdata\\local\\programs\\python\\python36\\lib\\site-packages\\PyInstaller\\loader\\pyiboot01_bootstrap.py',
   'PYSOURCE'),
  ('keylogger', 'C:\\Users\\gemap\\Desktop\\keylogger.py', 'PYSOURCE'),
  ('keylogger.exe.manifest',
   'C:\\Users\\gemap\\Desktop\\build\\keylogger\\keylogger.exe.manifest',
   'BINARY')],
 True,
 False,
 False,
 [])
