('C:\\Users\\gemap\\Desktop\\build\\keylogger\\PYZ-00.pyz',
 [('copy',
   'c:\\users\\gemap\\appdata\\local\\programs\\python\\python36\\lib\\copy.py',
   'PYMODULE'),
  ('_strptime',
   'c:\\users\\gemap\\appdata\\local\\programs\\python\\python36\\lib\\_strptime.py',
   'PYMODULE'),
  ('_dummy_thread',
   'c:\\users\\gemap\\appdata\\local\\programs\\python\\python36\\lib\\_dummy_thread.py',
   'PYMODULE'),
  ('datetime',
   'c:\\users\\gemap\\appdata\\local\\programs\\python\\python36\\lib\\datetime.py',
   'PYMODULE'),
  ('calendar',
   'c:\\users\\gemap\\appdata\\local\\programs\\python\\python36\\lib\\calendar.py',
   'PYMODULE'),
  ('argparse',
   'c:\\users\\gemap\\appdata\\local\\programs\\python\\python36\\lib\\argparse.py',
   'PYMODULE'),
  ('gettext',
   'c:\\users\\gemap\\appdata\\local\\programs\\python\\python36\\lib\\gettext.py',
   'PYMODULE'),
  ('struct',
   'c:\\users\\gemap\\appdata\\local\\programs\\python\\python36\\lib\\struct.py',
   'PYMODULE'),
  ('textwrap',
   'c:\\users\\gemap\\appdata\\local\\programs\\python\\python36\\lib\\textwrap.py',
   'PYMODULE'),
  ('os',
   'c:\\users\\gemap\\appdata\\local\\programs\\python\\python36\\lib\\os.py',
   'PYMODULE'),
  ('subprocess',
   'c:\\users\\gemap\\appdata\\local\\programs\\python\\python36\\lib\\subprocess.py',
   'PYMODULE'),
  ('dummy_threading',
   'c:\\users\\gemap\\appdata\\local\\programs\\python\\python36\\lib\\dummy_threading.py',
   'PYMODULE'),
  ('selectors',
   'c:\\users\\gemap\\appdata\\local\\programs\\python\\python36\\lib\\selectors.py',
   'PYMODULE'),
  ('signal',
   'c:\\users\\gemap\\appdata\\local\\programs\\python\\python36\\lib\\signal.py',
   'PYMODULE'),
  ('ntpath',
   'c:\\users\\gemap\\appdata\\local\\programs\\python\\python36\\lib\\ntpath.py',
   'PYMODULE'),
  ('string',
   'c:\\users\\gemap\\appdata\\local\\programs\\python\\python36\\lib\\string.py',
   'PYMODULE'),
  ('genericpath',
   'c:\\users\\gemap\\appdata\\local\\programs\\python\\python36\\lib\\genericpath.py',
   'PYMODULE'),
  ('posixpath',
   'c:\\users\\gemap\\appdata\\local\\programs\\python\\python36\\lib\\posixpath.py',
   'PYMODULE'),
  ('stat',
   'c:\\users\\gemap\\appdata\\local\\programs\\python\\python36\\lib\\stat.py',
   'PYMODULE'),
  ('tokenize',
   'c:\\users\\gemap\\appdata\\local\\programs\\python\\python36\\lib\\tokenize.py',
   'PYMODULE'),
  ('token',
   'c:\\users\\gemap\\appdata\\local\\programs\\python\\python36\\lib\\token.py',
   'PYMODULE'),
  ('doctest',
   'c:\\users\\gemap\\appdata\\local\\programs\\python\\python36\\lib\\doctest.py',
   'PYMODULE'),
  ('unittest',
   'c:\\users\\gemap\\appdata\\local\\programs\\python\\python36\\lib\\unittest\\__init__.py',
   'PYMODULE'),
  ('unittest.signals',
   'c:\\users\\gemap\\appdata\\local\\programs\\python\\python36\\lib\\unittest\\signals.py',
   'PYMODULE'),
  ('unittest.main',
   'c:\\users\\gemap\\appdata\\local\\programs\\python\\python36\\lib\\unittest\\main.py',
   'PYMODULE'),
  ('unittest.runner',
   'c:\\users\\gemap\\appdata\\local\\programs\\python\\python36\\lib\\unittest\\runner.py',
   'PYMODULE'),
  ('unittest.loader',
   'c:\\users\\gemap\\appdata\\local\\programs\\python\\python36\\lib\\unittest\\loader.py',
   'PYMODULE'),
  ('fnmatch',
   'c:\\users\\gemap\\appdata\\local\\programs\\python\\python36\\lib\\fnmatch.py',
   'PYMODULE'),
  ('unittest.suite',
   'c:\\users\\gemap\\appdata\\local\\programs\\python\\python36\\lib\\unittest\\suite.py',
   'PYMODULE'),
  ('unittest.case',
   'c:\\users\\gemap\\appdata\\local\\programs\\python\\python36\\lib\\unittest\\case.py',
   'PYMODULE'),
  ('contextlib',
   'c:\\users\\gemap\\appdata\\local\\programs\\python\\python36\\lib\\contextlib.py',
   'PYMODULE'),
  ('pprint',
   'c:\\users\\gemap\\appdata\\local\\programs\\python\\python36\\lib\\pprint.py',
   'PYMODULE'),
  ('logging',
   'c:\\users\\gemap\\appdata\\local\\programs\\python\\python36\\lib\\logging\\__init__.py',
   'PYMODULE'),
  ('unittest.result',
   'c:\\users\\gemap\\appdata\\local\\programs\\python\\python36\\lib\\unittest\\result.py',
   'PYMODULE'),
  ('unittest.util',
   'c:\\users\\gemap\\appdata\\local\\programs\\python\\python36\\lib\\unittest\\util.py',
   'PYMODULE'),
  ('pdb',
   'c:\\users\\gemap\\appdata\\local\\programs\\python\\python36\\lib\\pdb.py',
   'PYMODULE'),
  ('getopt',
   'c:\\users\\gemap\\appdata\\local\\programs\\python\\python36\\lib\\getopt.py',
   'PYMODULE'),
  ('pydoc',
   'c:\\users\\gemap\\appdata\\local\\programs\\python\\python36\\lib\\pydoc.py',
   'PYMODULE'),
  ('webbrowser',
   'c:\\users\\gemap\\appdata\\local\\programs\\python\\python36\\lib\\webbrowser.py',
   'PYMODULE'),
  ('socket',
   'c:\\users\\gemap\\appdata\\local\\programs\\python\\python36\\lib\\socket.py',
   'PYMODULE'),
  ('shutil',
   'c:\\users\\gemap\\appdata\\local\\programs\\python\\python36\\lib\\shutil.py',
   'PYMODULE'),
  ('zipfile',
   'c:\\users\\gemap\\appdata\\local\\programs\\python\\python36\\lib\\zipfile.py',
   'PYMODULE'),
  ('py_compile',
   'c:\\users\\gemap\\appdata\\local\\programs\\python\\python36\\lib\\py_compile.py',
   'PYMODULE'),
  ('tarfile',
   'c:\\users\\gemap\\appdata\\local\\programs\\python\\python36\\lib\\tarfile.py',
   'PYMODULE'),
  ('gzip',
   'c:\\users\\gemap\\appdata\\local\\programs\\python\\python36\\lib\\gzip.py',
   'PYMODULE'),
  ('_compression',
   'c:\\users\\gemap\\appdata\\local\\programs\\python\\python36\\lib\\_compression.py',
   'PYMODULE'),
  ('lzma',
   'c:\\users\\gemap\\appdata\\local\\programs\\python\\python36\\lib\\lzma.py',
   'PYMODULE'),
  ('bz2',
   'c:\\users\\gemap\\appdata\\local\\programs\\python\\python36\\lib\\bz2.py',
   'PYMODULE'),
  ('email.message',
   'c:\\users\\gemap\\appdata\\local\\programs\\python\\python36\\lib\\email\\message.py',
   'PYMODULE'),
  ('email.policy',
   'c:\\users\\gemap\\appdata\\local\\programs\\python\\python36\\lib\\email\\policy.py',
   'PYMODULE'),
  ('email.contentmanager',
   'c:\\users\\gemap\\appdata\\local\\programs\\python\\python36\\lib\\email\\contentmanager.py',
   'PYMODULE'),
  ('email.quoprimime',
   'c:\\users\\gemap\\appdata\\local\\programs\\python\\python36\\lib\\email\\quoprimime.py',
   'PYMODULE'),
  ('email.headerregistry',
   'c:\\users\\gemap\\appdata\\local\\programs\\python\\python36\\lib\\email\\headerregistry.py',
   'PYMODULE'),
  ('email._header_value_parser',
   'c:\\users\\gemap\\appdata\\local\\programs\\python\\python36\\lib\\email\\_header_value_parser.py',
   'PYMODULE'),
  ('urllib',
   'c:\\users\\gemap\\appdata\\local\\programs\\python\\python36\\lib\\urllib\\__init__.py',
   'PYMODULE'),
  ('email.iterators',
   'c:\\users\\gemap\\appdata\\local\\programs\\python\\python36\\lib\\email\\iterators.py',
   'PYMODULE'),
  ('email.generator',
   'c:\\users\\gemap\\appdata\\local\\programs\\python\\python36\\lib\\email\\generator.py',
   'PYMODULE'),
  ('random',
   'c:\\users\\gemap\\appdata\\local\\programs\\python\\python36\\lib\\random.py',
   'PYMODULE'),
  ('bisect',
   'c:\\users\\gemap\\appdata\\local\\programs\\python\\python36\\lib\\bisect.py',
   'PYMODULE'),
  ('hashlib',
   'c:\\users\\gemap\\appdata\\local\\programs\\python\\python36\\lib\\hashlib.py',
   'PYMODULE'),
  ('email._encoded_words',
   'c:\\users\\gemap\\appdata\\local\\programs\\python\\python36\\lib\\email\\_encoded_words.py',
   'PYMODULE'),
  ('base64',
   'c:\\users\\gemap\\appdata\\local\\programs\\python\\python36\\lib\\base64.py',
   'PYMODULE'),
  ('email.charset',
   'c:\\users\\gemap\\appdata\\local\\programs\\python\\python36\\lib\\email\\charset.py',
   'PYMODULE'),
  ('email.encoders',
   'c:\\users\\gemap\\appdata\\local\\programs\\python\\python36\\lib\\email\\encoders.py',
   'PYMODULE'),
  ('email.base64mime',
   'c:\\users\\gemap\\appdata\\local\\programs\\python\\python36\\lib\\email\\base64mime.py',
   'PYMODULE'),
  ('email._policybase',
   'c:\\users\\gemap\\appdata\\local\\programs\\python\\python36\\lib\\email\\_policybase.py',
   'PYMODULE'),
  ('email.header',
   'c:\\users\\gemap\\appdata\\local\\programs\\python\\python36\\lib\\email\\header.py',
   'PYMODULE'),
  ('email.errors',
   'c:\\users\\gemap\\appdata\\local\\programs\\python\\python36\\lib\\email\\errors.py',
   'PYMODULE'),
  ('email.utils',
   'c:\\users\\gemap\\appdata\\local\\programs\\python\\python36\\lib\\email\\utils.py',
   'PYMODULE'),
  ('email._parseaddr',
   'c:\\users\\gemap\\appdata\\local\\programs\\python\\python36\\lib\\email\\_parseaddr.py',
   'PYMODULE'),
  ('email',
   'c:\\users\\gemap\\appdata\\local\\programs\\python\\python36\\lib\\email\\__init__.py',
   'PYMODULE'),
  ('email.parser',
   'c:\\users\\gemap\\appdata\\local\\programs\\python\\python36\\lib\\email\\parser.py',
   'PYMODULE'),
  ('email.feedparser',
   'c:\\users\\gemap\\appdata\\local\\programs\\python\\python36\\lib\\email\\feedparser.py',
   'PYMODULE'),
  ('quopri',
   'c:\\users\\gemap\\appdata\\local\\programs\\python\\python36\\lib\\quopri.py',
   'PYMODULE'),
  ('uu',
   'c:\\users\\gemap\\appdata\\local\\programs\\python\\python36\\lib\\uu.py',
   'PYMODULE'),
  ('optparse',
   'c:\\users\\gemap\\appdata\\local\\programs\\python\\python36\\lib\\optparse.py',
   'PYMODULE'),
  ('http.server',
   'c:\\users\\gemap\\appdata\\local\\programs\\python\\python36\\lib\\http\\server.py',
   'PYMODULE'),
  ('http',
   'c:\\users\\gemap\\appdata\\local\\programs\\python\\python36\\lib\\http\\__init__.py',
   'PYMODULE'),
  ('socketserver',
   'c:\\users\\gemap\\appdata\\local\\programs\\python\\python36\\lib\\socketserver.py',
   'PYMODULE'),
  ('mimetypes',
   'c:\\users\\gemap\\appdata\\local\\programs\\python\\python36\\lib\\mimetypes.py',
   'PYMODULE'),
  ('http.client',
   'c:\\users\\gemap\\appdata\\local\\programs\\python\\python36\\lib\\http\\client.py',
   'PYMODULE'),
  ('ssl',
   'c:\\users\\gemap\\appdata\\local\\programs\\python\\python36\\lib\\ssl.py',
   'PYMODULE'),
  ('ipaddress',
   'c:\\users\\gemap\\appdata\\local\\programs\\python\\python36\\lib\\ipaddress.py',
   'PYMODULE'),
  ('html',
   'c:\\users\\gemap\\appdata\\local\\programs\\python\\python36\\lib\\html\\__init__.py',
   'PYMODULE'),
  ('html.entities',
   'c:\\users\\gemap\\appdata\\local\\programs\\python\\python36\\lib\\html\\entities.py',
   'PYMODULE'),
  ('pydoc_data.topics',
   'c:\\users\\gemap\\appdata\\local\\programs\\python\\python36\\lib\\pydoc_data\\topics.py',
   'PYMODULE'),
  ('pydoc_data',
   'c:\\users\\gemap\\appdata\\local\\programs\\python\\python36\\lib\\pydoc_data\\__init__.py',
   'PYMODULE'),
  ('tty',
   'c:\\users\\gemap\\appdata\\local\\programs\\python\\python36\\lib\\tty.py',
   'PYMODULE'),
  ('tempfile',
   'c:\\users\\gemap\\appdata\\local\\programs\\python\\python36\\lib\\tempfile.py',
   'PYMODULE'),
  ('urllib.parse',
   'c:\\users\\gemap\\appdata\\local\\programs\\python\\python36\\lib\\urllib\\parse.py',
   'PYMODULE'),
  ('platform',
   'c:\\users\\gemap\\appdata\\local\\programs\\python\\python36\\lib\\platform.py',
   'PYMODULE'),
  ('plistlib',
   'c:\\users\\gemap\\appdata\\local\\programs\\python\\python36\\lib\\plistlib.py',
   'PYMODULE'),
  ('xml.parsers.expat',
   'c:\\users\\gemap\\appdata\\local\\programs\\python\\python36\\lib\\xml\\parsers\\expat.py',
   'PYMODULE'),
  ('xml.parsers',
   'c:\\users\\gemap\\appdata\\local\\programs\\python\\python36\\lib\\xml\\parsers\\__init__.py',
   'PYMODULE'),
  ('xml',
   'c:\\users\\gemap\\appdata\\local\\programs\\python\\python36\\lib\\xml\\__init__.py',
   'PYMODULE'),
  ('xml.sax.expatreader',
   'c:\\users\\gemap\\appdata\\local\\programs\\python\\python36\\lib\\xml\\sax\\expatreader.py',
   'PYMODULE'),
  ('xml.sax.saxutils',
   'c:\\users\\gemap\\appdata\\local\\programs\\python\\python36\\lib\\xml\\sax\\saxutils.py',
   'PYMODULE'),
  ('urllib.request',
   'c:\\users\\gemap\\appdata\\local\\programs\\python\\python36\\lib\\urllib\\request.py',
   'PYMODULE'),
  ('getpass',
   'c:\\users\\gemap\\appdata\\local\\programs\\python\\python36\\lib\\getpass.py',
   'PYMODULE'),
  ('nturl2path',
   'c:\\users\\gemap\\appdata\\local\\programs\\python\\python36\\lib\\nturl2path.py',
   'PYMODULE'),
  ('ftplib',
   'c:\\users\\gemap\\appdata\\local\\programs\\python\\python36\\lib\\ftplib.py',
   'PYMODULE'),
  ('netrc',
   'c:\\users\\gemap\\appdata\\local\\programs\\python\\python36\\lib\\netrc.py',
   'PYMODULE'),
  ('http.cookiejar',
   'c:\\users\\gemap\\appdata\\local\\programs\\python\\python36\\lib\\http\\cookiejar.py',
   'PYMODULE'),
  ('urllib.response',
   'c:\\users\\gemap\\appdata\\local\\programs\\python\\python36\\lib\\urllib\\response.py',
   'PYMODULE'),
  ('urllib.error',
   'c:\\users\\gemap\\appdata\\local\\programs\\python\\python36\\lib\\urllib\\error.py',
   'PYMODULE'),
  ('xml.sax',
   'c:\\users\\gemap\\appdata\\local\\programs\\python\\python36\\lib\\xml\\sax\\__init__.py',
   'PYMODULE'),
  ('xml.sax.handler',
   'c:\\users\\gemap\\appdata\\local\\programs\\python\\python36\\lib\\xml\\sax\\handler.py',
   'PYMODULE'),
  ('xml.sax._exceptions',
   'c:\\users\\gemap\\appdata\\local\\programs\\python\\python36\\lib\\xml\\sax\\_exceptions.py',
   'PYMODULE'),
  ('xml.sax.xmlreader',
   'c:\\users\\gemap\\appdata\\local\\programs\\python\\python36\\lib\\xml\\sax\\xmlreader.py',
   'PYMODULE'),
  ('pkgutil',
   'c:\\users\\gemap\\appdata\\local\\programs\\python\\python36\\lib\\pkgutil.py',
   'PYMODULE'),
  ('importlib',
   'c:\\users\\gemap\\appdata\\local\\programs\\python\\python36\\lib\\importlib\\__init__.py',
   'PYMODULE'),
  ('importlib.abc',
   'c:\\users\\gemap\\appdata\\local\\programs\\python\\python36\\lib\\importlib\\abc.py',
   'PYMODULE'),
  ('importlib.util',
   'c:\\users\\gemap\\appdata\\local\\programs\\python\\python36\\lib\\importlib\\util.py',
   'PYMODULE'),
  ('importlib.machinery',
   'c:\\users\\gemap\\appdata\\local\\programs\\python\\python36\\lib\\importlib\\machinery.py',
   'PYMODULE'),
  ('importlib._bootstrap_external',
   'c:\\users\\gemap\\appdata\\local\\programs\\python\\python36\\lib\\importlib\\_bootstrap_external.py',
   'PYMODULE'),
  ('importlib._bootstrap',
   'c:\\users\\gemap\\appdata\\local\\programs\\python\\python36\\lib\\importlib\\_bootstrap.py',
   'PYMODULE'),
  ('shlex',
   'c:\\users\\gemap\\appdata\\local\\programs\\python\\python36\\lib\\shlex.py',
   'PYMODULE'),
  ('glob',
   'c:\\users\\gemap\\appdata\\local\\programs\\python\\python36\\lib\\glob.py',
   'PYMODULE'),
  ('code',
   'c:\\users\\gemap\\appdata\\local\\programs\\python\\python36\\lib\\code.py',
   'PYMODULE'),
  ('codeop',
   'c:\\users\\gemap\\appdata\\local\\programs\\python\\python36\\lib\\codeop.py',
   'PYMODULE'),
  ('dis',
   'c:\\users\\gemap\\appdata\\local\\programs\\python\\python36\\lib\\dis.py',
   'PYMODULE'),
  ('opcode',
   'c:\\users\\gemap\\appdata\\local\\programs\\python\\python36\\lib\\opcode.py',
   'PYMODULE'),
  ('bdb',
   'c:\\users\\gemap\\appdata\\local\\programs\\python\\python36\\lib\\bdb.py',
   'PYMODULE'),
  ('cmd',
   'c:\\users\\gemap\\appdata\\local\\programs\\python\\python36\\lib\\cmd.py',
   'PYMODULE'),
  ('inspect',
   'c:\\users\\gemap\\appdata\\local\\programs\\python\\python36\\lib\\inspect.py',
   'PYMODULE'),
  ('ast',
   'c:\\users\\gemap\\appdata\\local\\programs\\python\\python36\\lib\\ast.py',
   'PYMODULE'),
  ('difflib',
   'c:\\users\\gemap\\appdata\\local\\programs\\python\\python36\\lib\\difflib.py',
   'PYMODULE'),
  ('__future__',
   'c:\\users\\gemap\\appdata\\local\\programs\\python\\python36\\lib\\__future__.py',
   'PYMODULE'),
  ('stringprep',
   'c:\\users\\gemap\\appdata\\local\\programs\\python\\python36\\lib\\stringprep.py',
   'PYMODULE'),
  ('tracemalloc',
   'c:\\users\\gemap\\appdata\\local\\programs\\python\\python36\\lib\\tracemalloc.py',
   'PYMODULE'),
  ('pickle',
   'c:\\users\\gemap\\appdata\\local\\programs\\python\\python36\\lib\\pickle.py',
   'PYMODULE'),
  ('_compat_pickle',
   'c:\\users\\gemap\\appdata\\local\\programs\\python\\python36\\lib\\_compat_pickle.py',
   'PYMODULE'),
  ('threading',
   'c:\\users\\gemap\\appdata\\local\\programs\\python\\python36\\lib\\threading.py',
   'PYMODULE'),
  ('_threading_local',
   'c:\\users\\gemap\\appdata\\local\\programs\\python\\python36\\lib\\_threading_local.py',
   'PYMODULE'),
  ('smtplib',
   'c:\\users\\gemap\\appdata\\local\\programs\\python\\python36\\lib\\smtplib.py',
   'PYMODULE'),
  ('hmac',
   'c:\\users\\gemap\\appdata\\local\\programs\\python\\python36\\lib\\hmac.py',
   'PYMODULE'),
  ('keyboard',
   'c:\\users\\gemap\\appdata\\local\\programs\\python\\python36\\lib\\site-packages\\keyboard\\__init__.py',
   'PYMODULE'),
  ('keyboard._canonical_names',
   'c:\\users\\gemap\\appdata\\local\\programs\\python\\python36\\lib\\site-packages\\keyboard\\_canonical_names.py',
   'PYMODULE'),
  ('keyboard._generic',
   'c:\\users\\gemap\\appdata\\local\\programs\\python\\python36\\lib\\site-packages\\keyboard\\_generic.py',
   'PYMODULE'),
  ('keyboard._keyboard_event',
   'c:\\users\\gemap\\appdata\\local\\programs\\python\\python36\\lib\\site-packages\\keyboard\\_keyboard_event.py',
   'PYMODULE'),
  ('json',
   'c:\\users\\gemap\\appdata\\local\\programs\\python\\python36\\lib\\json\\__init__.py',
   'PYMODULE'),
  ('json.encoder',
   'c:\\users\\gemap\\appdata\\local\\programs\\python\\python36\\lib\\json\\encoder.py',
   'PYMODULE'),
  ('json.decoder',
   'c:\\users\\gemap\\appdata\\local\\programs\\python\\python36\\lib\\json\\decoder.py',
   'PYMODULE'),
  ('json.scanner',
   'c:\\users\\gemap\\appdata\\local\\programs\\python\\python36\\lib\\json\\scanner.py',
   'PYMODULE'),
  ('keyboard._darwinkeyboard',
   'c:\\users\\gemap\\appdata\\local\\programs\\python\\python36\\lib\\site-packages\\keyboard\\_darwinkeyboard.py',
   'PYMODULE'),
  ('ctypes.util',
   'c:\\users\\gemap\\appdata\\local\\programs\\python\\python36\\lib\\ctypes\\util.py',
   'PYMODULE'),
  ('ctypes.macholib.dyld',
   'c:\\users\\gemap\\appdata\\local\\programs\\python\\python36\\lib\\ctypes\\macholib\\dyld.py',
   'PYMODULE'),
  ('ctypes.macholib',
   'c:\\users\\gemap\\appdata\\local\\programs\\python\\python36\\lib\\ctypes\\macholib\\__init__.py',
   'PYMODULE'),
  ('ctypes.macholib.dylib',
   'c:\\users\\gemap\\appdata\\local\\programs\\python\\python36\\lib\\ctypes\\macholib\\dylib.py',
   'PYMODULE'),
  ('ctypes.macholib.framework',
   'c:\\users\\gemap\\appdata\\local\\programs\\python\\python36\\lib\\ctypes\\macholib\\framework.py',
   'PYMODULE'),
  ('ctypes',
   'c:\\users\\gemap\\appdata\\local\\programs\\python\\python36\\lib\\ctypes\\__init__.py',
   'PYMODULE'),
  ('ctypes._endian',
   'c:\\users\\gemap\\appdata\\local\\programs\\python\\python36\\lib\\ctypes\\_endian.py',
   'PYMODULE'),
  ('keyboard._nixkeyboard',
   'c:\\users\\gemap\\appdata\\local\\programs\\python\\python36\\lib\\site-packages\\keyboard\\_nixkeyboard.py',
   'PYMODULE'),
  ('keyboard._nixcommon',
   'c:\\users\\gemap\\appdata\\local\\programs\\python\\python36\\lib\\site-packages\\keyboard\\_nixcommon.py',
   'PYMODULE'),
  ('keyboard._winkeyboard',
   'c:\\users\\gemap\\appdata\\local\\programs\\python\\python36\\lib\\site-packages\\keyboard\\_winkeyboard.py',
   'PYMODULE'),
  ('ctypes.wintypes',
   'c:\\users\\gemap\\appdata\\local\\programs\\python\\python36\\lib\\ctypes\\wintypes.py',
   'PYMODULE'),
  ('queue',
   'c:\\users\\gemap\\appdata\\local\\programs\\python\\python36\\lib\\queue.py',
   'PYMODULE')])
