id,collection,dc.contributor.author[en_US],dc.date.accessioned,dc.date.available,dc.date.issued,dc.description.abstract[en_US],dc.description.provenance[en],dc.identifier.doi,dc.identifier.issn,dc.identifier.uri,dc.language,dc.publisher,dc.publisher.issue,dc.publisher.page,dc.publisher.volume,dc.subject,dc.title[en_US],dc.type
09ae0616-e328-4124-99b6-54f34174125d,123456789/779||123456789/786||123456789/782||123456789/788,"Soedibjo, Soepardi||Djer, Mulyadi M||Firmansyah, Agus",2020-03-23T05:36:52Z,2020-03-23T05:36:52Z,2017-07-11,"An observational, cross sectional study was conducted on elementary school students in Central Jakarta between May and October 1997. This preliminary study aimed to determine the prevalence and influencing factors of obesity in elementary school students. From 488 students studied, 47 were obese. The prevalence rate in this study was 9.6%, with boys twice as much as girls. Factors that influenced the incidence of obesity were: (1) age, (2) time of introduction of solid food during infancy, (3) eating habit, (4) calorie intake, and (5) physical activities. There were two factors that increased the incidence of obesity namely: (1) obesity of parents, and (2) birth weight. Environmental factors that increased the incidence of obesity were: (1) parent's occupation and (2) family income. Laboratory findings associated with obesity were: (1) increase blood cholesterol concentration, (2) increase blood triglyceride concentration, (3) decreased HDL cholesterol concentration, and (4) increased LDL cholesterol concentration. We conclude that the prevalence rate of obesity obtained in this study was higher compared with the previous studies, and that obesity in school children is influenced by many factors.","Made available in DSpace on 2020-03-23T05:36:52Z (GMT). No. of bitstreams: 0
  Previous issue date: 2017",https://doi.org/10.14238/pi38.9-10.1998.193-204,2338-476X,https://paediatricaindonesiana.org/index.php/paediatrica-indonesiana/article/view/1569/1299||http://localhost:8080/xmlui/handle/123456789/1960,eng,Paeditrica Indonesiana,2,193-204,38,,Prevalence and Influencing Factors of Obesity in Elementary School Children,Journal Article
baeba0bf-29c0-488b-b3cd-45958d2eb971,123456789/779||123456789/786||123456789/638,"Dasraf, Dani||Djer, Mulyadi M||Advani, Najib",2020-03-29T04:38:36Z,2020-03-29T04:38:36Z,2017,"Persistent ductus arteriosus is one of the most frequent congenital heart diseases found in infants, mainly in preterms. Echocardiography is the gold standard for the diagnosis of hemodynamically significant patent ductus arteriosus (hs-PDA) in preterm neonates. A few studies have suggested that the use of a simple blood assay to detect N-terminal pro-brain natriuretic peptide (NT-proBNP) may be useful in determining the diagnosis and management of hs-PDA. No such studies have been conducted in Indonesia, although the assay kit and characteristics of the patient (gestational age and chronological age) influence the accuracy of NT-proBNP levels in determining hs-PDA. The aim of this study was to determine the association between the NT-proBNP level and the prevalence of hs-PDA in an Indonesian patient population. A cross-sectional study was conducted at Dr. Cipto Mangunkusumo Hospital. PDA was determined using echocardiography in 49 preterm neonates (gestational age <37 weeks and birthweight <2000 g). Subsequently, these patients were divided into three groups: non-PDA, non-hsPDA, and hs-PDA. The blood NT-proBNP level was then determined in the non-hsPDA and hs-PDA groups, and between-group differences were compared. Among the 49 neonates, 33 patients had PDA, and 16 of these had hs-PDA. The results revealed a significant association between the NT-proBNP level and hs-PDA (p < 0.001).","Made available in DSpace on 2020-03-29T04:38:36Z (GMT). No. of bitstreams: 0
  Previous issue date: 2017",10.1088/1742-6596/884/1/012147,1742-6596,https://iopscience.iop.org/article/10.1088/1742-6596/884/1/012147/pdf||http://localhost:8080/xmlui/handle/123456789/3242,eng,Journal of Physics: Conference Series,,012147,884,,The role of n terminal - probrain natriuretic peptide in the diagnosis of hemodynamic persistent asrteriosus ductus in premature neonates patient,Journal Article
b8cf6679-e626-4c92-9e89-47323ad6ee29,123456789/779||123456789/786||123456789/638,"Djer, Mulyadi M",2020-03-29T04:38:36Z,2020-03-29T04:38:36Z,2017,,"Made available in DSpace on 2020-03-29T04:38:36Z (GMT). No. of bitstreams: 0
  Previous issue date: 2017",,978-979-8271-56-4,http://staff.ui.ac.id/system/files/users/najib.advani/publication/pkb_ika_72_2017_keselamatan_pasien_pada_anak.pdf||http://localhost:8080/xmlui/handle/123456789/3243,idn,Departemen Ilmu Kesehatan Anak FKUI-RSCM,,85-96,,,Penyakit Jantung pada Remaja,Book Chapter
09505b76-d50b-4054-888a-f174285bd3e4,123456789/779||123456789/786||123456789/638||123456789/792,"Idris, Nikmah Salamia||Cheung, Michael M H||Grobbee, Diederick E||Burgner, David||Kurniati, Nia||Djer, Mulyadi M||Uiterwaal, Cuno S P M",2020-03-29T04:38:36Z,2020-03-29T04:38:36Z,2016,"OBJECTIVE: To investigate the effects of HIV infection in children on heart electrical conduction, particularly to delineate the effects of HIV infection from treatment.||METHODS: On a 12-lead ECG, available for 37 antiretroviral therapy (ART) naïve, 42 ART-exposed vertically-acquired HIV-infected and 50 healthy children in Jakarta, Indonesia, we measured cardiac conduction parameters: PR, QRS, and QTc (corrected using Bazett's formula) intervals. The associations between HIV infection/treatment status and ECG intervals were evaluated using general linear modelling with further adjustment for potential confounders or intermediary variables. Findings are presented as (adjusted) mean differences between each of the two HIV groups and healthy children.||RESULTS: Although not exceeding the clinical threshold for long QT (QTc >460 ms for girls and >440 ms for boys) compared to healthy children, mean QTc intervals were longer in ART-naïve (difference 18.2 ms, 95% CI 7.0 to 29.3) and, to greater extent, in ART-exposed HIV-infected children (difference 28.9 ms, 19.3 to 38.5). Following adjustment for RR interval, age and height, prolongation of PR interval was seen only in ART-naïve HIV-infected children (difference 12.9 ms, 2.4 to 23.3). Cardiac mass/function, high-sensitive C reactive protein, cholesterol and glycated haemoglobin levels, systolic and diastolic blood pressures, or postnatal parental smoking exposure did not affect these associations. No difference in the QRS interval was observed between groups.||CONCLUSIONS: Prolongation of the QTc interval occurs in ART-naïve HIV-infected children and, to a greater extent, in the ART-exposed children, whereas a longer PR interval appears to be seen only among ART-naïve HIV-infected children.","Made available in DSpace on 2020-03-29T04:38:36Z (GMT). No. of bitstreams: 0
  Previous issue date: 2016",10.1136/openhrt-2015-000340,2053-3624,https://www.ncbi.nlm.nih.gov/pmc/articles/PMC4800758/||https://openheart.bmj.com/content/3/1/e000340||http://localhost:8080/xmlui/handle/123456789/3238,eng,Open heart,1,e000340,3,,Effects of paediatric HIV infection on electrical conduction of the heart,Journal Article
fc66c11d-f7cb-4cb0-b2f2-aea7d573925f,123456789/779||123456789/786||123456789/638,"Marwali, Eva M||Budiwardhana, Novik||Prakoso, Radityo||Fakhri, Dicky||Boom, Cindy E||Djer, Mulyadi M||Sastroasmoro, Sudigdo||Portman, Michael A",2020-03-29T04:38:36Z,2020-03-29T04:38:36Z,2015-11-06,"Background: In Indonesia, children with congenital heart disease (CHD) usually present later for corrective surgery than in developed countries. These children show chronic malnutrition associated with low thyroid hormone levels, which decline further immediately after open-heart surgery.||Objectives: To test the hypothesis that oral triiodothyronine (T3) supplementation improves clinical outcome indexed by time to extubation (TTE) after aortic cross-clamp release.||Methods: The study was a single center, randomized, double blind, and placebo controlled trial in children with CHD younger than 2 years of age undergoing open-heart surgery. Oral T3 or placebo was administered every 6 hours for 60 hours. TTE served as the primary endpoint. Hemodynamics, echocardiography parameters, inotropic score, fluid balance, diuresis, and sepsis complication were serially recorded and evaluated as secondary endpoints.||Results: A total of 78 patients were allocated to T3 group and 74 patients to the control group. Oral T3 prevented the declination in serum T3 noted in control group. The T3 group had a shorter time to extubation than placebo with a mean (SD) 25.99(24.30) and 40.71(56.29) hours, respectively and a hazard ratio for chance of extubation (95% CI) 1.49 (1.06-2.11), p=0.02. The median (IQ) cardiac index increased significantly after surgery in T3 (day 1 vs. day 2, 3.28 (2.46 - 4.46) to. 3.65 (2.65 - 4.77) L/min/m2, p=0.01), but not in the placebo group. More diuresis and a significantly more negative fluid balance (p=0.03) were found in T3 group during the first 72 hours post surgery. No difference in the use of inotropic agents or loop diuretics. Sepsis was significantly lower in T3 group with incidence (%) of sepsis in T3 and placebo group 1(1) vs. 10(13) patients, (p=0.004), respectively. Otherwise there was no difference in adverse events including arrhythmia.||Conclusion: Oral T3 supplementation is safe and provides multiple clinical benefits in an extremely vulnerable population of children in a developing country. Any reduction in TTE could improve sparse resources by increasing ventilator and ICU availability.","Made available in DSpace on 2020-03-29T04:38:36Z (GMT). No. of bitstreams: 0
  Previous issue date:   11",,15244539,https://www.ahajournals.org/doi/abs/10.1161/circ.132.suppl_3.11665||http://localhost:8080/xmlui/handle/123456789/3236,eng,Circulation,Suppl 3,A11665,132,,Oral Triiodothyronine Supplementation Decreases Time to Extubation After Pediatric Open Heart Surgery in Indonesia,Abstract
4cf698f2-f6c7-4c8d-bea0-e304d4a831eb,123456789/779||123456789/786||123456789/638,"Satriani, Liku||Audrey||Yanuarso, Piprim B||Djer, Mulyadi M",2020-03-29T04:38:36Z,2020-03-29T04:38:36Z,2015-06-01,"Latar belakang: Terapi baku emas dalam penutupan defek septum ventrikel (DSV) adalah pembedahan. Prosedur pembedahan mempunyai morbiditas yang terkait dengan torakotomi, pintasan jantung paru, komplikasi prosedur, jaringan parut bekas operasi, dan trauma psikologis. Oleh karena itu, timbul usaha pendekatan transkateter untuk menutup DSV yang bersifat relatif kurang invasif.||Tujuan: Mengetahui perbandingan hasil penutupan DSV perimembran, komplikasi prosedur, lama rawat di rumah sakit, dan total biaya prosedur antara prosedur transkateter dengan prosedur pembedahan.||Metode: Penelitian retrospektif analitik dengan data berupa rekam medis pasien anak dengan DSV perimembran yang datang ke Pelayanan Jantung Terpadu Rumah Sakit dr. Cipto Mangunkusumo dan dilakukan penutupan defek dengan salah satu prosedur dalam periode Januari 2010-Desember 2013.||Hasil: Didapat 69 kasus anak dengan DSV perimembran, terdiri atas 39 kasus dengan prosedur pembedahan dan 30 kasus dengan prosedur transkateter. Prosedur pembedahan dan prosedur transkateter mempunyai tingkat keberhasilan yang serupa (89,7% vs 96,7%, p=0,271). Prosedur pembedahan mempunyai komplikasi yang lebih banyak dibandingkan prosedur transkateter (46,7% vs 7,7%, p<0,001). Prosedur pembedahan juga mempunyai lama rawat di rumah sakit yang lebih panjang dibandingkan prosedur transkateter (8 hari vs 3 hari, p<0,0001), dan semua prosedur pembedahan membutuhkan perawatan di ruang rawat intensif. Tidak ada perbedaan total biaya antara prosedur transkateter dengan prosedur pembedahan (Rp. 55.032.636 vs Rp. 58.593.320 p=0,923).||Kesimpulan: Prosedur penutupan DSV perimembran secara transkateter mempunyai efektivitas dan biaya yang sama dengan prosedur pembedahan dan mempunyai komplikasi yang lebih sedikit serta lama rawat di rumah sakit yang lebih pendek.","Made available in DSpace on 2020-03-29T04:38:36Z (GMT). No. of bitstreams: 0
  Previous issue date:    6",http://dx.doi.org/10.14238/sp17.1.2015.9-16,2338-5030,https://saripediatri.org/index.php/sari-pediatri/article/view/141/122||http://localhost:8080/xmlui/handle/123456789/3232,idn,Sari Pediatri,1,9-16,17,DSV perimembran||perbandingan||transkateter||pembedahan,Perbandingan Luaran dan Biaya Penutupan Defek Septum Ventrikel Perimembran secara Transkateter dan Pembedahan,Artikel Penelitian
7d1f1a8c-afa8-4181-af31-9b64f82fdc68,123456789/779||123456789/812||123456789/786||123456789/638||123456789/805,"Djer, Mulyadi M||Idris, Nikmah Salamia||Alwi, Idrus||Wijaya, Ika P",2020-03-27T14:05:31Z,2020-03-27T14:05:31Z,2014-07-01,"Transcatheter closure of perimembranous and muscular ventricular septal defect (VSD) has been performed widely and it has more advantages compare to surgery. However, transcatheter closure of residual VSD post operation of complex congenital heart disease is still challenging because of the complexity of anatomy and concern about device stability, so the operator should meticulously choose the most appropriate technique and device. We would like to report a case of transcatheter closure of residual VSD post Rastelli operation in a patient with double outlet right ventricle (DORV), sub-aortic VSD, severe infundibulum pulmonary stenosis (PS) and single coronary artery. The patient had undergone operations for four times, but he still had intractable heart failure that did not response to medications. On the first attempt. we closed the VSD using a VSD occluder, unfortunately the device embolized into the descending aorta, but fortunately we was able to snare it out. Then we decided to close the VSD using a patent ductus arteriosus (PDA occluder). On transesophageal echocardiography (TEE) and angiography evaluation, the device position was stable. Post transcatheter VSD closure, the patient clinical condition improved significantly and he could finally be discharged after a long post-surgery hospitalization. Based on this experience we concluded that the transcatheter closure of residual VSD in complex CHD using PDA occluder could be an effective alternative treatment.","Made available in DSpace on 2020-03-27T14:05:31Z (GMT). No. of bitstreams: 0
  Previous issue date:    7",,0125-9326,http://www.inaactamedica.org/archives/2014/25348186.pdf||http://localhost:8080/xmlui/handle/123456789/2695,eng,Acta medica Indonesiana,3,233-237,46,residual VSD||PDA occluder||transcatheter closure||heart failure||Rastelli,Transcatheter closure of post-operative residual ventricular septal defect using a patent ductus arteriosus closure device in an adult: a case report,Case Report
7fb9eaa9-2d95-4573-9297-068eeb3b55f7,123456789/779||123456789/782||123456789/783,"Rosary||Chair, Imral||Wahidiyat, Pustika Amalia||Firmansyah, Agus||Mangunatmadja, Irawan||Djer, Mulyadi M",2020-03-23T05:35:54Z,2020-03-23T05:35:54Z,2013-06,"Latar belakang: Hiperglikemia pada sakit kritis berhubungan dengan luaran yang lebih buruk, seperti lama penggunaan ventilasi mekanik, dan obat vasoaktif lebih panjang, serta derajat disfungsi organ yang lebih berat.||Tujuan: Mengetahui hubungan karakteristik subjek dengan hiperglikemia serta mengetahui perbedaan proporsi subjek yang mengalami hiperglikemia antara kelompok subjek yang memakai ventilasi mekanik, mendapat obat vasoaktif, serta dengan disfungsi organ berat, dibandingkan dengan kelompok subjek yang tidak.||Metode: Studi analitik potong lintang dilakukan pada anak sakit kritis di Pediatric Intensive Care Unit (PICU) Rumah Sakit Cipto Mangunkusumo (RSCM) usia 1 bulan-18 tahun, dilakukan antara Maret-Juni 2011.||Hasil: Didapatkan 87 subjek penelitian, 60 di antaranya laki-laki. Hiperglikemia ditemukan pada 25/87 (28,7%) subjek dengan median kadar glukosa darah 121 (37-443) mg/dL Hiperglikemia ditemukan lebih banyak pada laki-laki, usia >1-5 tahun, gizi kurang, dan pasca-bedah, tetapi tidak ditemukan hubungan yang bermakna. Subjek yang menggunakan ventilasi mekanik dan vasoaktif memiliki proporsi lebih besar mengalami hiperglikemia dibandingkan dengan subjek yang tidak, tetapi perbedaan ini juga tidak bermakna. Enam dari 10 subjek yang memiliki skor Pediatric Logistic Organ Dysfunction (PELOD) tinggi mengalami hiperglikemia. Proporsi ini lebih besar dibandingkan subjek dengan skor PELOD rendah, yaitu 19/77 subjek (p=0,03).||Kesimpulan: Proporsi subjek yang mengalami hiperglikemia lebih besar pada anak dengan disfungsi organ berat daripada disfungsi organ ringan. Karakteristik subjek tidak berhubungan dengan hiperglikemia pada sakit kritis. Tidak terbukti adanya perbedaan proporsi subjek yang mengalami hiperglikemia pada anak sakit kritis yang menggunakan ventilasi mekanik dan obat vasoaktif dibandingkan dengan kelompok subjek yang tidak.","Made available in DSpace on 2020-03-23T05:35:54Z (GMT). No. of bitstreams: 0
  Previous issue date: 2013",,2338-5030,https://saripediatri.org/index.php/sari-pediatri/article/view/306/248||http://localhost:8080/xmlui/handle/123456789/1897,ind,Sari Pediatri,4,32-38,15,hiperglikemia||sakit kritis||luaran||skor PELOD,Faktor yang Berhubungan dengan Hiperglikemia dan Luarannya pada Anak Sakit Kritis,Journal Article
5c971f9d-e06a-4ce9-a6f7-42c282193ef6,123456789/779||123456789/786||123456789/638||123456789/783||123456789/787||123456789/791||123456789/780,"Helmy, Mazdar||Djer, Mulyadi M||Pardede, Sudung O||Setyanto, Darmawan B||Rundjan, Lily||Sjakti, Hikari A",2020-03-29T04:37:41Z,2020-03-29T04:37:41Z,2013-03-01,"Background: Surgery has been the standard therapy for secundum atrial septal defect (ASD) closure, but it has significant associated morbidities related to sternotomy, cardiopulmonary bypass, complications, residual scars, and trauma. A less invasive nonsurgical approach with transcatheter devices was developed to occlude ASD. Amplatzer® septal occluder (ASO) is a common device in transcatheter closure.||Objective: To compare two secundum ASD closure procedures, transcatheter closure by ASO and surgical closure, in terms of efficacy, complications, length of hospital stay, and total costs.||Methods: A retrospective analysis was performed on children with secundum ASD admitted to the Cardiology Center of Cipto Mangunkusumo Hospital from January 2005 to December 2011. Patients received either transcatheter closure with ASO or surgical closure procedures. Data was obtained from patients' medical records.||Results: A total of 112 secundum ASD cases were included in this study, consisting of 42 subjects who underwent transcatheter closure procedure by ASO and 70 subjects who underwent surgical closure procedure. Procedure efficacies of surgery and ASO were not significantly different (98.6% vs 95.2%, respectively, P= 0.555). However, subjects who underwent surgical procedures had significantly more complications than subjects who underwent transcatheter closure procedure (60% vs 28.6%, respectively, OR 1.61; 95%CI 1.19 to 2.18; P= 0.001). Hospital stays were also significantly longer for surgical patients than for transcatheter closure patients (6 days vs 2 days, respectively, P< 0.0001). In addition, all surgical subjects required intensive care. Transcatheter closure had a mean total cost of 52.7 (SD 6.7) million Rupiahs while the mean cost of surgery was 47 (SD 9.2) million Rupiahs (P< 0.0001). Since the ASO device cost represented 58% of the total cost of transcatheter closure, the mean cost of transcatheter closure procedure without the device itself was less costly than surgery.||Conclusion: Transcatheter closure using ASO has a similar efficacy to that of surgical closure procedure. However, subjects who underwent transcatheter closure have lower complication rates and shorter length ofhosp ital stays than subjects who had surgery, but transcatheter closure costs are higher compared to the surgical procedure.","Made available in DSpace on 2020-03-29T04:37:41Z (GMT). No. of bitstreams: 0
  Previous issue date:    3",https://doi.org/10.14238/pi53.2.2013.108-16,2338-476X,https://paediatricaindonesiana.org/index.php/paediatrica-indonesiana/article/view/263/163||http://localhost:8080/xmlui/handle/123456789/3223,eng,Paediatrica Indonesiana,2,108-116,53,secundum ASD||comparison||Amplatzer septal occluder||surgery,Comparison of surgical vs. non-surgical closure procedures for secundum atrial septal defect,Journal Article
83faab5c-bc5b-4f7f-90b2-1e91a94d8bb9,123456789/779||123456789/786||123456789/638,"Djer, Mulyadi M",2020-03-29T04:37:41Z,2020-03-29T04:37:41Z,2013,,"Made available in DSpace on 2020-03-29T04:37:41Z (GMT). No. of bitstreams: 0
  Previous issue date: 2013",,978-979-8271-45-8,http://staff.ui.ac.id/system/files/users/rini.sekartini/publication/buku-pkb-651.pdf||http://localhost:8080/xmlui/handle/123456789/3222,idn,Departemen Ilmu Kesehatan Anak FKUI-RSCM,,120-128,,,Penyakit Jantung Bawaan: Haruskah Dilakukan Operasi?,Book Chapter
d7dba9ca-4ea5-44c9-82a7-81918969b502,123456789/779||123456789/786||123456789/638,"Djer, Mulyadi M",2020-03-29T04:37:41Z,2020-03-29T04:37:41Z,2012,"Takikardia supraventrikular atau supraventricular tachycardia, selanjutnya disingkat dengan SVT, merupakan kedaruratan kardiovaskular yang sering ditemukan pada bayi dan anak. Angka kejadian SVT diperkirakan antara 1 per 25.000 sampai 1 per 250. Deteksi dini SVT dan tata laksana yang tepat dan cepat sangat penting. SVT yang tidak ditata laksana dengan cepat dan tepat dan berlangsung lebih dari 24-36 jam menimbulkan gagal jantung kongestif atau gagal sirkulasi. Untuk mengenal SVT, pada makalah ini akan diuraikan terlebih dulu anatomi sistem konduksi dan gambaran elektrokardiografi (EKG) normal. Setelah itu akan dijelaskan definisi SVT, mekanisme terjadinya SVT serta tata laksana SVT terkini.","Made available in DSpace on 2020-03-29T04:37:41Z (GMT). No. of bitstreams: 0
  Previous issue date: 2012",,978-979-8271-39-7,https://s3.amazonaws.com/academia.edu.documents/54739842/Buku-PKB-61.pdf?response-content-disposition=inline%3B%20filename%3DFAKULTAS_KEDOKTERAN_UNIVERSITAS_INDONESI.pdf&X-Amz-Algorithm=AWS4-HMAC-SHA256&X-Amz-Credential=AKIAIWOWYYGZ2Y53UL3A%2F20200227%2Fus-east-1%2Fs3%2Faws4_request&X-Amz-Date=20200227T030849Z&X-Amz-Expires=3600&X-Amz-SignedHeaders=host&X-Amz-Signature=dd49203423c6185b0ddf24803e4ed57dae590fb19e3b41758659f708cc62cb32||http://localhost:8080/xmlui/handle/123456789/3218,idn,Departemen Ilmu Kesehatan Anak FKUI-RSCM,,42-55,,,Supraventricular Tachycardia,Book Chapter
9d4900fa-d3d0-4ec6-b53c-5b95196e0906,123456789/779||123456789/786||123456789/638||123456789/788,"Sjarif, Damayanti Rusli||Anggriawan, Shirley L||Putra, Sukman Tulus||Djer, Mulyadi M",2020-03-29T04:37:41Z,2020-03-29T04:37:41Z,2011-02-01,"Background: Undernutrition is a common cause of morbidity in children with CHD. Previous data from developing country showed prevalence of preoperative undernutrition in children with CHD was up to 45%. The aim of this study are to determine the anthropometric profiles and prevalence of undernutrition in children with CHD by using the anthropometric measurement.||Methods: A cross-sectional study was carried out in children aged 0-2 years old with CHD in Cipto Mangunkusumo hospital. All patients underwent an anthropometric evaluation (weight, length and head circumference) at presentation. Undernutrition, failure to thrive /FTT, short stature and microcephaly were determined according to WHO, weight-for-length, weight-for-age at 2 points, length-for-age, head circumference-for-age z-score < -2SD accordingly.||Results: We had total of 95 patients, 73 patients with acyanotic and 22 patients with cyanotic lesions. Prevalence of undernutrition in CHD was 51.1%, with 22.3% severe undernutrition. FTT was found in 64.9%, short stature in 49.5% and microcephaly in 37% patients. FTT was found higher in acyanotic (72.2%) compared to cyanotic lesions (42.9%). In acyanotic, weight was affected more than length (72.2% vs 49.3%). In cyanotic, weight and length affected equally (42.9% vs 54.5%). Diet counseling were done in patients with undernutrition. Medicines, transcatheter or surgery intervention were indicated in selected patients.||Conclusions: Prevalence of FTT was higher than undernutrition in children with CHD. FTT was found higher in acyanotic lesions. In acyanotic, weight was affected more than length. In cyanotic, weight and length affected equally.","Made available in DSpace on 2020-03-29T04:37:41Z (GMT). No. of bitstreams: 0
  Previous issue date: 2011",https://doi.org/10.13181/mji.v20i1.426,2252-8083,http://mji.ui.ac.id/journal/index.php/mji/article/view/426/418||http://localhost:8080/xmlui/handle/123456789/3215,eng,Medical Journal of Indonesia,1,40-45,20,congenital heart disease||failure to thrive||short stature||undernutrition,Anthropometric profiles of children with congenital heart disease,Journal Article
6778aa25-7c8d-4d52-91d7-7ef33ce4cbdd,123456789/786||123456789/638||123456789/779||123456789/847,"Djer, Mulyadi M||Anggriawan, Shirley L||Gatot, Djajadiman||Amalia, Pustika||Sastroasmoro, Sudigdo||Widjaja, Patricia",2019-11-28T01:13:26Z,2019-11-28T01:13:26Z,2013-10,"AIM: to assess for a correlation between T2*CMR with LV function and mass in thalassemic patients with iron overload.||METHODS: a cross-sectional study on thalassemic patients was conducted between July and September 2010 at Cipto Mangunkusumo and Premier Hospitals, Jakarta, Indonesia. Clinical examinations, review of medical charts, electrocardiography, echocardiography, and T2*CMR were performed. Cardiac siderosis was measured by T2*CMR conduction time. Left ventricle diastolic and systolic functions, as well as LV mass index were measured using echocardiography. Correlations between T2*CMR and echocardiography findings, as well as serum ferritin were determined using Pearson's and Spearman's tests.||RESULTS: thirty patients aged 13-41 years were enrolled, of whom two-thirds had -thalassemia major and one-third had HbE/-thalassemia. Diastolic dysfunction was identified in 8 patients, whereas systolic function was normal in all patients. Increased LV mass index was found in 3 patients. T2*CMR conduction times ranged from 8.98 to 55.04 ms and a value below 20 ms was demonstrated in 14 patients. There was a statistically significant moderate positive correlation of T2*CMR conduction time with E/A ratio (r = 0.471, P = 0.009), but no correlation was found with LV mass index (r=0.097, P=0.608). A moderate negative correlation was found between T2*CMR and serum ferritin (r = -0.514, P = 0.004), while a moderate negative correlation was found between serum ferritin and E/A ratio (r = -0.425, P = 0.019).||CONCLUSION: T2*CMR myocardial conduction time has a moderate positive correlation with diastolic function, moderate negative correlation with serum ferritin, but not with LV mass index and systolic function.","Made available in DSpace on 2019-11-28T01:13:26Z (GMT). No. of bitstreams: 0
  Previous issue date: 2013",,0125-9326,http://www.inaactamedica.org/archives/2013/24448334.pdf||http://localhost:8080/xmlui/handle/123456789/1081,eng,Acta medica Indonesiana,4,295-301,45,,Correlation between T2* cardiovascular magnetic resonance with left ventricular function and mass in adolescent and adult major thalassemia patients with iron overload.,Journal Article
bccd9d34-73c1-4a09-af2d-29ede19a5e92,123456789/786||123456789/842||123456789/638||123456789/779||123456789/847,"Djer, Mulyadi M||Ramadhina, Nuvi N||Idris, Nikmah S||Wilson, Dedi||Alwi, Idrus||Yamin, Muhammad||Wijaya, Ika P",2019-11-28T01:13:25Z,2019-11-28T01:13:25Z,2013-07,"AIM: to evaluate the results of transcatheter closure of atrial septal defect (ASD) in adolescents and adult.||METHODS: a case series of patients undergoing transcatheter closure of ASD in RS Cipto Mangunkusumo, Jakarta during 2002 -2013. Transesophageal echocardiography, hemodynamic study, and angiography were performed before the procedure. Oxygen test was done if PA pressure was more than 2/3 of aortic pressure, followed by an occlusion test if no response observed to determine whether the device could be released.||RESULTS: we enrolled 54 patients, of whom 26% were adolescents and 3% were males. Median body weight was 49 (26-75) kg and ASD size was 21 (9.4-39.6) mm. The procedure was done under general anesthesia in 26% of patients. Oxygen test was applied in 11% patients and occlusion test in 2% of patient. Transcatheter closure of ASD was successful in all patients using common technique (31%), right pulmonary vein-assisted (65%), left pulmonary assisted (2%), and cutting long sheath (2%). There was neither residual ASD nor complications observed. Mean fluoroscopy and procedure time were 29 (SD 18) and 109 (SD 36) minutes, respectively. Median hospital stay was 1 (1-3) day.||CONCLUSION: transcatheter closure of ASD in adolescents and adults is safe and effective.","Made available in DSpace on 2019-11-28T01:13:25Z (GMT). No. of bitstreams: 0
  Previous issue date: 2013",,0125-9326,http://www.inaactamedica.org/archives/2013/24045387.pdf||http://localhost:8080/xmlui/handle/123456789/1075,eng,Acta medica Indonesiana,3,180-6,45,,Transcatheter closure of atrial septal defects in adolescents and adults: technique and difficulties.,Journal Article
a2a53b7c-6d44-423b-8813-546e73d092ab,123456789/779||123456789/732||123456789/786||123456789/842||123456789/638||123456789/847||123456789/736||123456789/753||123456789/756,"Murni, Indah K||Djer, Mulyadi M||Yanuarso, Piprim B||Putra, Sukman T||Advani, Najib||Rachmat, Jusuf||Perdana, Aries||Sukardi, Rubiana",2019-12-02T04:41:13Z,2019-12-02T04:41:13Z,2019-01,"Background: Evaluating outcome and identifying predictors of major complications among children undergoing cardiac surgery are essential to improve care. We evaluated short-term outcomes of postcardiac surgery and predictors of major complications in a national referral hospital in Indonesia.||Methods: A prospective cohort study was conducted from April 2014 to March 2015 on all children undergoing cardiac surgery. Participants were followed up from the time of surgery until hospital discharge and 30-day mortality. We performed univariate and multivariate logistic regression using STATA 12-1 to identify predictors of postsurgical major complications.||Results: A total of 257 patients (median age: 36 months) were recruited; 217 (84.1%) had complications, including low cardiac output syndrome (19.8%), arrhythmia (18.6%), sepsis (17.4%), and pleural effusion (14.8%). Forty-nine (19%) patients had major complications, including cardiac arrest (5%), need for emergency chest opening (3.9%), and multiple organ failure (7.4%). 12.8% died during hospital stay, and 30-day mortality was 13.6%. Predictors of major complications were cyanotic congenital heart disease (odds ratio [OR]: 4.6, 95% confidence interval [CI]: 1.5-14.2), longer duration of cardiopulmonary bypass (CPB, OR: 4.4, 95% CI: 1.5-13.4), high inotropes (OR: 13.1, 95% CI: 3.2-54.2), and increase in lactate >0.75 mmol/L/h or more in the first 24 h (OR: 37.1, 95% CI: 10.1-136.3).
Conclusion: One-fifth of children undergoing cardiac surgery experienced major complications with around 13% mortality. Cyanotic congenital heart disease, longer duration of CPB, high inotropes on leaving operating theater, and increase in blood lactate are associated with major complications in children after cardiac surgery.","Made available in DSpace on 2019-12-02T04:41:13Z (GMT). No. of bitstreams: 0
  Previous issue date: 2019",10.4103/apc.APC_146_17,0974-2069,https://www.ncbi.nlm.nih.gov/pmc/articles/PMC6343386/||http://www.annalspc.com/article.asp?issn=0974-2069;year=2019;volume=12;issue=1;spage=38;epage=44;aulast=Murni||http://localhost:8080/xmlui/handle/123456789/1658,eng,12,1,38-44,,Cardiac surgery||children||complication||mortality||outcome||predictor,Outcome of pediatric cardiac surgery and predictors of major complication in a developing country.,Journal Article
6a57b135-f5e5-424d-a4fe-6d2eecdabfc4,123456789/779||123456789/786||123456789/842||123456789/638||123456789/847,"Marwali, Eva M||Caesa, Putri||Darmaputri, Sekarpramita||Sani, Alvin A||Roebiono, Poppy S||Fakhri, Dicky||Djer, Mulyadi M||Munasir, Zakiudin||Batubara, Jose R L||Satroasmoro, Sudigdo||Portman, Michael A||Haas, Nikolaus A",2019-12-03T04:16:06Z,2019-12-03T04:16:06Z,2019-08,"The oral triiodothyronine for infants and children undergoing cardiopulmonary bypass (OTICC) trial showed that Triiodothyronine (T3) supplementation improved hemodynamic and clinical outcome parameters. We tested the validity of low cardiac output syndrome (LCOS), derived using clinical parameters and laboratory data, by comparing the LCOS diagnosis with objective parameters commonly measured in a cardiac intensive care unit (CCU) setting. OTICC, a randomized, placebo-controlled trial included children younger than 3 years with an Aristotle score between 6 and 9. We used the existing trial data set to compare the LCOS diagnosis with echocardiographic hemodynamic parameters. Additionally, we determined if LCOS, prospectively assigned during a clinical trial, served as an early predictor of clinical outcomes. All LCOS subjects at 6 and 12 h after cross-clamp release later showed significantly lower pulse pressure, stroke volume and cardiac output, and higher systemic vascular resistance. These LCOS patients also had significantly longer time to extubation (TTE) and higher mortality rate. LCOS incidence was significantly lower in the T3 treatment group [n?=?86 vs. 66, respectively, p?<?0.001; OR (95% CI) 0.43 (0.36-0.52)] particularly at 6 h. Also, LCOS patients in the placebo group had significantly lower FT3 serum levels over time. These analyses confirm that early clinically defined LCOS successfully predicts cardiac dysfunction determined later by objective hemodynamic echocardiographic parameters. Furthermore, early LCOS significantly impacts TTE and mortality. Finally, the data support prior clinical trial data, showing that oral T3 supplementation decreases early LCOS in concordance with reducing TTE.","Made available in DSpace on 2019-12-03T04:16:06Z (GMT). No. of bitstreams: 0
  Previous issue date: 2019",10.1007/s00246-019-02143-x,,https://link.springer.com/article/10.1007%2Fs00246-019-02143-x||http://localhost:8080/xmlui/handle/123456789/1769,eng,Pediatric cardiology,6,1238-1246,40,1432-1971,Oral Triiodothyronine Supplementation Decreases Low Cardiac Output Syndrome After Pediatric Cardiac Surgery.,Journal Article
9ce7371b-1d31-4df0-8e14-237d78836f99,123456789/779||123456789/786||123456789/788||123456789/792||123456789/785||123456789/649||123456789/780,"Saraswati, Desy Dewi||Pudjiadi, Antonius H||Djer, Mulyadi M||Supriyatno, Bambang||Syarif, Damayanti Rusli||Kurniati, Nia",2020-03-26T04:51:35Z,2020-03-26T04:51:35Z,2014-02,"Latar belakang: Sepsis merupakan penyebab utama kematian bayi dan anak. Status imun pejamu dan malnutrisi merupakan faktor penting yang menentukan luaran pada sepsis. Skor pediatric logistic organ dysfunction (PELOD) adalah sistem skoring disfungsi organ pada sakit kritis, untuk memprediksi mortalitas pasien sepsis.||Tujuan: Mengetahui faktor risiko usia, status gizi, dan skor PELOD terhadap mortalitas sepsis.||Metode: Retrospektif analitik berupa data rekam medis pasien berusia 1 bulan – 18 tahun di PICU RSCM bulan Apri1- Agustus 2011 dengan diagnosis sepsis menurut kriteria konsensus sepsis internasional.||Hasil: Sembilanpuluh dua dari 209 pasien mengalami sepsis, 22 (23,9%) di antaranya meninggal. Median usia subjek 15 (rentang 2-192) bulan dengan sebaran terbanyak pada kelompok usia 1 bulan – 1 tahun (62%). Sebagian besar subjek (57,61%) memiliki status gizi kurang. Fokus infeksi tersering adalah infeksi saraf pusat dan gastrointestinal, masing-masing 32 (34,77%) subjek. Gizi buruk (p<0,001; OR 26,88;IK95% 4,74-152,61) dan skor PELOD ≥20 (p<0,001; OR 78,8;IK95%14,23-436,36) merupakan faktor risiko yang secara independen berperan terhadap mortalitas sepsis pada anak.||Kesimpulan: Gizi buruk dan skor PELOD ≥20 berperan terhadap mortalitas sepsis pada anak. Usia <5 tahun tidak terbukti sebagai faktor risiko mortalitas sepsis pada anak.","Made available in DSpace on 2020-03-26T04:51:35Z (GMT). No. of bitstreams: 0
  Previous issue date: 2014",http://dx.doi.org/10.14238/sp15.5.2014.281-8,2338-5030,https://saripediatri.org/index.php/sari-pediatri/article/view/220/168||http://localhost:8080/xmlui/handle/123456789/2404,ind,Sari Pediatri,5,281-288,15,sepsis||faktor risiko||usia||gizi||skor PELOD,Faktor Risiko yang Berperan pada Mortalitas Sepsis,Journal Article
cfab12ce-16ac-4933-855d-7981300e90d8,123456789/779||123456789/786||123456789/783,"Hidayat, Renno||Gatot, Djajadiman||Djer, Mulyadi M",2020-03-29T04:37:42Z,2020-03-29T04:37:42Z,2014-02,"Latar belakang: Anak dengan keganasan yang mendapatkan pengobatan kemoterapi sering mengalami episode demam neutropenia. Kondisi ini akan meningkatkan risiko infeksi yang berat akibat penurunan fungsi utama neutrofil sebagai pertahanan terhadap mikroorganisme asing. Rondinelli dkk telah mengusulkan suatu sistem skoring untuk memprediksikan terjadinya komplikasi infeksi berat pada pasien keganasan dengan demam neutropenia selama pemberian kemoterapi sehingga diperoleh tata laksana yang sesuai.||Tujuan: Mengetahui apakah sistem skoring Rondinelli dapat membantu mendeteksi risiko terjadinya komplikasi infeksi berat dengan LLA-L1 yang mengalami demam neutropenia selama pemberian kemoterapi fase induksi.||Metode: Penelitian uji diagnostik metode potong lintang retrospektif dengan membandingkan sistem skoring Rondinelli terhadap baku emas terjadinya komplikasi infeksi berat berupa kondisi septikemia disertai terdapatnya bakteremia pada kultur darah. Sampel diambil dari data sekunder berupa rekam medis pasien LLA-L1 yang menjalani rawat inap di bangsal Departemen IKA FKUI/RSCM mulai bulan Januari 2010 hingga bulan Agustus 2012. Subyek penelitian adalah pasien anak berusia 0 hingga 18 tahun dengan Leukemia limfoblastik akut L1 (LLA-L1) yang mengalami episode demam neutropenia yang pertama kali selama pemberian kemoterapi fase induksi.||Hasil: Penelitian dilakukan pada 30 subyek yang memenuhi kriteria inklusi. Insiden komplikasi infeksi berat saat episode demam neutropenia yang pertama kali pada pasien LLA-L1 selama pemberian kemoterapi fase induksi 30%. Sensitivitas, spesifisitas, nilai duga positif, nilai duga negatif, rasio kemungkinan positif, dan rasio kemungkinan negatif skoring Rondinelli berturut-turut adalah 66,7%; 90,5%; 75%; 86,3%; 6,94; dan 0,36. Area di bawah kurva ROC pada penelitian ini 0,759.||Kesimpulan: Sistem skoring Rondinelli merupakan instrumen yang cukup baik untuk mendeteksi komplikasi infeksi berat pada anak dengan LLA-L1 yang mengalami demam neutropenia selama pemberian kemoterapi fase induksi.","Made available in DSpace on 2020-03-29T04:37:42Z (GMT). No. of bitstreams: 0
  Previous issue date: 2014",http://dx.doi.org/10.14238/sp15.5.2014.325-31,2338-5030,https://saripediatri.org/index.php/sari-pediatri/article/view/232/179||http://localhost:8080/xmlui/handle/123456789/3228,idn,Sari Pediatri,5,325-331,15,skoring Rondinelli||komplikasi infeksi berat||leukemia limfoblastik akut L1,Validasi Sistem Skoring Rondinelli untuk Mendeteksi Komplikasi Infeksi Berat pada Pasien Leukemia Limfoblastik Akut L1 dengan Demam Neutropenia Selama Kemoterapi Fase Induksi,Artikel Penelitian
0bc57cda-f897-4609-94f5-a8770a136435,123456789/779||123456789/786||123456789/638,"Rohimi, Syarif||Advani, Najib||Sastroasmoro, Sudigdo||Madiyono, Bambang||Putra, Sukman Tulus||Djer, Mulyadi M||Subroto, Fajar",2020-03-29T04:37:41Z,2020-03-29T04:37:41Z,2012-07,"Background: Thalassemia is a major public health problem in Indonesia. Cardiac diseases remain as the main cause of death in these patients due to iron overload. Although the T2* magnetic resonance imaging has been considered as the gold standard for assessing cardiac iron overload but it has limited availability. The tissue doppler imaging (TDI) echocardiography, a fairly new and easy method that is suggested, can detect early abnormal myocardial iron overload.||Objective: To assess myocardial systolic and diastolic function of thalassemic patients using TDI and examine their correlation with serum ferritin level.||Methods: A cross-sectional study was conducted from January to March 2011 at the Harapan Kita Women and Children Hospital. We performed clinical examination, serum ferritin level, as well as conventional and tissue doppler echocardiography on all subjects.||Results: We included 34 regularly-tranfused patients, of which 17 were boys. The mean age of the subjects was 11.6 (SD 4.7 years, range 2.6 - 20 years). Mean pulse rate and blood pressure were within normal range. Hemoglobin level at inclusion ranged from 5.8 to 6 g/dL. Almost all patients did not receive regular chelation therapy. Median serum ferritin level was 6275 ng/mL (range 2151 - 17,646 ng/mL). Conventional echocardiography showed normal systolic function, but some diastolic dysfunctions were found including E wave abnormalites in 4 patients, A wave abnormalites in 3, and E/A ratio abnormalites found in 3. The TDI showed decreased systolic function (Sa wave abnormality) in 9 patients and diastolic dysfunctions (Ea wave abnormality in 11 patients and Aa wave abnormaly in 2). No abnormality was found in Ea/Aa and ElEa ratios. There was a weak negative correlation between ferritin level and Sa wave and Ea wave respectively and a moderately negative correlation between ferritin level and Ea/Aa ratio. There was no correlation between serum ferritin and Aa wave or E/Ea ratio.||Conclusion: TDI identifies a greater number of patients with systolic and diastolic myocardial dysfunction than was revealed by conventional echocardiography. There was a weak negative correlation between serum ferritin to Sa wave and Ea wave, and a moderately negative correlation between ferritin and Ea/Aa ratio. There was no correlation between serum ferritin and Aa wave or E/Ea ratio.","Made available in DSpace on 2020-03-29T04:37:41Z (GMT). No. of bitstreams: 0
  Previous issue date: 2012",https://doi.org/10.14238/pi52.4.2012.187-93,2338-476X,https://paediatricaindonesiana.org/index.php/paediatrica-indonesiana/article/view/395/279||http://localhost:8080/xmlui/handle/123456789/3221,eng,Paediatrica Indonesiana,4,187-193,52,tissue doppler imaging||echocardiography||systolic function||diastolic function||ferritin||beta-thalassemia major,Tissue doppler imaging in thalassemia major patients: correlation between systolic and diastolic function with serum ferritin level,Journal Article
60a62a47-2d51-4f4b-aaa6-eeab6f58fac5,123456789/779||123456789/786||123456789/638,"Kuswiyanto, Rahmat B||Putra, Sukman Tulus||Advani, Najib||Djer, Mulyadi M||Sukardi, Rubiana||Rachmat, Jusuf",2020-03-29T04:37:41Z,2020-03-29T04:37:41Z,2011-10-01,"Latar belakang: Penyakit jantung reumatik merupakan kelainan jantung didapat penyebab kesakitan dan kematian terbanyak pada anak di Indonesia. Bedah katup pada anak dengan penyakit jantung reumatik jarang dilakukan.||Tujuan: Untuk mengetahui profil klinis dan keluaran bedah katup pada anak dengan penyakit jantung reumatik.||Metode: Penelitian secara retrospektif dilakukan pada 28 anak dengan penyakit jantung reumatik yang menjalani bedah katup di RSUPN Cipto Mangunkusumo selama tahun 2003 sampai 2009. Data dikumpulkan dan dicatat berdasarkan catatan medis berupa profil klinis sebelum operasi, umur saat operasi, jenis kelamin, status klinis, dan jenis operasi, serta data ekokardiografi berupa kelainan katup dan fungsi ventrikel. Sedangkan keluaran berupa komplikasi pascaoperasi, lesi residual dan fraksi ejeksi, fraksi pemendekan serta dimensi akhir diastolik ventrikel kiri seminggu pascaoperasi.||Hasil: Umur rerata saat operasi 13,9 (SD 2,7) tahun; anak laki-laki dan perempuan sama banyak. Status klinis praoperatif fungsional kelas III dan kelas IV masing-masing terjadi pada 13 dan 9 anak. Regurgitasi mitral berat didapatkan pada 75% anak. Perbaikan katup mitral dilakukan pada 16, penggantian katup mitral pada 8, dan penggunaan katup ganda pada 4 anak. Tiga anak mengalami komplikasi berupa perdarahan, efusi pleura, dan sepsis, sedangkan satu orang meninggal. Lesi residual pascaoperasi didapatkan pada 11 anak, berupa regurgitasi dan stenosis mitral ringan, dan satu anak dengan paravalvular leak. Tidak didapatkan perbedaan yang bermakna dalam fraksi ejeksi, fraksi pemendekan dan dimensi akhir diastolik ventrikel kiri sebelum dan seminggu sesudah operasi.||Kesimpulan: Bedah katup pada anak dengan penyakit jantung reumatik mempunyai keluaran yang baik, dengan angka kematian dan komplikasi yang rendah. Pemantauan lebih lanjut diperlukan untuk menilai keluaran jangka panjang.","Made available in DSpace on 2020-03-29T04:37:41Z (GMT). No. of bitstreams: 0
  Previous issue date: 2011",http://dx.doi.org/10.14238/sp13.3.2011.200-6,2338-5030,https://saripediatri.org/index.php/sari-pediatri/article/view/433/365||http://localhost:8080/xmlui/handle/123456789/3217,idn,Sari Pediatri,3,200-206,13,bedah katup||penyakit jantung reumatik pada anak,Profil Klinis dan Keluaran Penyakit Jantung Reumatik pada Anak yang Menjalani Bedah Katup,Artikel Penelitian
2bdcbbe6-8ada-49f1-8ef2-0e9f81a43a12,123456789/779||123456789/786||123456789/638,"Djer, Mulyadi M||Mochammading||Said, Mardjanis",2020-03-29T04:37:42Z,2020-03-29T04:37:42Z,2013-07,"Background: Patent ductus arterious (PDA) is a non-cyanotic congenital heart disease (CHD) caused by the patency of the arterial duct after birth. For the last three decades, management of PDA with transcatheter closure has been gaining popularity, including in developing countries. However its effectiveness in terms of clinical outcomes and cost may vary among center and has not been thoroughly evaluated yet in Indonesia.||Objectives: To compare the cost and clinical effectiveness of PDA closure using transcatheter approach compared to surgical ligation.||Methods: We performed a retrospective review on patients underwent either transcatheter or surgical closure of PDA between January 2000 and December 2006 in Cipto Mangunkusumo Hospital,Jakarta, Indonesia. Clinical outcomes as well as cost were compared using the student T-test and Chi-square for numerical and categorical variables, respectively.||Results: During the study period, 89 patients underwent transcatheter closure using an Amplatzer® device occluder (ADO) device and 67 had surgical ligation. Successful PDA closure on first attempt was achieved in 87 (96%) and 63 (94%) children who underwent transcatheter and surgical closure, respectively (P = 1.000). Two children with unsuccessful transcatheter closure eventually had their PDA closed by surgery, whereas one child with residual PDA after surgical closure had his PDA closed by coil. No residual PDA was found in the transcatheter closure group at one-week follow up. Duration of hospitalization was significantly less for patients having transcatheter closure compared to surgery [2.7 (SD 1.5) vs. 6.6 (SD 1.5) days, P< 0.0001]. The cost for PDA closure with anAmplatzer® device was more expensive than surgical ligation [Rp. 29,930,000 (SD 57,200) vs. Rp. 12,205,000 (SD 89,300), P< 0.0001].||Conclusion: Transcatheter closure is equally effective as surgical ligation in closing the PDA. Less hospitalization is required with transcatheter closure although the cost is higher than surgical ligation.","Made available in DSpace on 2020-03-29T04:37:42Z (GMT). No. of bitstreams: 0
  Previous issue date: 2013",https://doi.org/10.14238/pi53.4.2013.239-44,2338-476X,https://paediatricaindonesiana.org/index.php/paediatrica-indonesiana/article/view/289/187||http://localhost:8080/xmlui/handle/123456789/3226,eng,Paediatrica Indonesiana,4,239-244,53,persistent ductus arteriosus||Amplatzer® duct occluder||surgical ligation||cost analysis,Transcatheter vs. surgical closure of patent ductus arteriosus: outcomes and cost analysis,Journal Article
daf5948b-cb4b-4690-9eb9-4403481a66cf,123456789/779||123456789/786||123456789/792||123456789/785,"Lukito, Vimaladewi||Djer, Mulyadi M||Pudjiadi, Antonius H||Munasir, Zakiudin",2020-03-29T04:37:41Z,2020-03-29T04:37:41Z,2012-05,"OBJECTIVE: Fluid challenge is often used to predict fluid responsiveness in critically ill patients. Inappropriate fluid expansion can lead to some unwanted side effects; therefore, we need a noninvasive predictive parameter to assess fluid responsiveness. We want to assess the hemodynamic parameter changes after passive leg raising, which can mimic fluid expansion, to predict fluid responsiveness in pediatric intensive care unit patients and to get a cutoff value of cardiac index in predicting fluid responsiveness in pediatric patients.||DESIGN: Nonrandomized experimental study.||SETTING: Tertiary academic pediatric intensive care.||PATIENTS: Children admitted to pediatric intensive care.||INTERVENTION: Hemodynamic parameters were assessed at baseline, after passive leg raising, at second baseline, and after volume expansion (10 mL/kg normal saline infusion over 15 mins).||MEASUREMENTS AND MAIN RESULTS: We measured the heart rate, systolic blood pressure, and stroke volume and cardiac index using Doppler echocardiography. The hemodynamic parameter changes induced by passive leg raising were monitored. Among 40 patients included in the study, 20 patients had a cardiac index increase of ≥10% after volume expansion (responders). Changes in heart rate, systolic blood pressure, and stroke volume after passive leg raising did not significantly relate to the response to volume expansion. There was significant relation between changes in cardiac index to predict fluid responsiveness (p = .012, r(2) = .22, 95% confidence interval 1.529 to 31.37). A cardiac index increase by ≥10% induced by passive leg raising predicted preload-dependent status with sensitivity of 55% and specificity of 85% (area under the curve 0.71 ± 0.084, 95% confidence interval 0.546-0.874).||CONCLUSION: The concomitant measurements in cardiac index changes after the passive leg raising maneuver can be helpful in predicting who might have an increase in cardiac index with subsequent fluid resuscitation.","Made available in DSpace on 2020-03-29T04:37:41Z (GMT). No. of bitstreams: 0
  Previous issue date: 2012",10.1097/PCC.0b013e3182388ab3,1529-7535,https://journals.lww.com/pccmjournal/Abstract/2012/05000/The_role_of_passive_leg_raising_to_predict_fluid.19.aspx||http://localhost:8080/xmlui/handle/123456789/3220,eng,Pediatric critical care medicine : a journal of the Society of Critical Care Medicine and the World Federation of Pediatric Intensive and Critical Care Societies,3,e155-160,13,fluid responsiveness||hemodynamic monitoring||passive leg raising,The role of passive leg raising to predict fluid responsiveness in pediatric intensive care unit patients,Journal Article
52fa2396-0bd7-4f8f-8d96-0615f70db8d3,123456789/779||123456789/786||123456789/638||123456789/792,"Kuswiyanto, Rahmat B||Djer, Mulyadi M||Akib, Arwin A P||Sastroasmoro, Sudigdo",2020-03-29T04:37:41Z,2020-03-29T04:37:41Z,2011-05,"Background: Prevalence of cardiac complications in children 'With human immunodeficiency virus (HIV) infection have increased, in association 'With the availability of antiretroviral (ARV) therapy and the decrease of opportunistic infections. However, studies on cardiac complications in HIV patients in the various HIV clinical and immunologic categories have been limited. Furthermore, cardiac complications in Indonesian HIV infected children have never been reported.||Objectives: To determine the prevalence of cardiac complications in HIVinfected children and to compare ventricular function and dimensions based on HIV clinical and immunologic categories.||Methods: A cross-sectional study was done in the Department of Child Health, Cipto Mangunkusumo Hospital, Jakarta between October and December 2009 on 74 HIV-infected children aged below 15 years. Children with severe chronic or acute systemic diseases were excluded. Investigations included physical examinations, 12-lead electrocardiography and echocardiography to assess left ventricular dimension and ventricular function. Cardiac findings among children in different clinical and immunological categories were compared.||Results: Five children showed left ventricular fractional shortening below 25% and 16 had right ventricular dysfunction. Mean cardiac function and dimension were in the normal range. No differences in cardiac function and dimension, among the clinical HIV category groups (p>0.05) or immunologic suppression status groups (p>0.05) were observed.||Conclusion: In children 'With HIV infection, the prevalence of left ventricular dysfunction and right ventricular dysfunction was 7% and 22%, respectively. No differences in cardiac function and dimension were found among the different HIV clinical and immunological categories.","Made available in DSpace on 2020-03-29T04:37:41Z (GMT). No. of bitstreams: 0
  Previous issue date: 2011",https://doi.org/10.14238/pi51.3.2011.149-56,2338-476X,https://paediatricaindonesiana.org/index.php/paediatrica-indonesiana/article/view/717/570||http://localhost:8080/xmlui/handle/123456789/3216,eng,Paediatrica Indonesiana,3,149-156,51,HIV-infected children||ventricular function and dimension||clinical category,Ventricular function and dimensions in children with human immunodeficiency virus infection,Case Report
dd6ffc06-d181-450c-96c5-796106b8bb11,123456789/779||123456789/786||123456789/638,"Samudro, Heru||Djer, Mulyadi M",2020-03-29T04:37:41Z,2020-03-29T04:37:41Z,2012-01,"Persistent pulmonary hypertension of the newborn (PPHN) is rare, but life-threatening. If not treated, PPHN may cause respiratory failure and death in neonates. PPHN often occurs in term or post-term infants with a history of difficult labor, infection or asphyxia during birth. These infants do not have adequate oxygen during labor. Based on etiology, PPHN can be categorized into primary PPHN, which occurs by itself without apparent cause; or secondary PPHN, which is caused by meconium aspiration, hyaline membrane disease, neonatal sepsis with pneumonia, congenital heart abnormality, or maternal drug use (non-steroidal anti-inflammatories, methamphetamine, or selective serotonin re uptake inhibitors) during the third trimester of pregnancy.","Made available in DSpace on 2020-03-29T04:37:41Z (GMT). No. of bitstreams: 0
  Previous issue date: 2012",https://doi.org/10.14238/pi52.1.2012.57-60,2338-476X,https://paediatricaindonesiana.org/index.php/paediatrica-indonesiana/article/view/319/212||http://localhost:8080/xmlui/handle/123456789/3219,eng,Paediatrica Indonesiana,1,57-60,52,,Inhaled iloprost as part of combination therapy for persistent pulmonary hypertension of the newborn,Case Report
6695d93c-ec70-4d9b-9217-25d668cb8cd2,123456789/779||123456789/786||123456789/638,"Djer, Mulyadi M",2020-03-29T04:37:41Z,2020-03-29T04:37:41Z,2013-04,,"Made available in DSpace on 2020-03-29T04:37:41Z (GMT). No. of bitstreams: 0
  Previous issue date: 2013",,2654-3796,http://ojs-mki.idionline.org/index.php/jinma/article/view/158||http://localhost:8080/xmlui/handle/123456789/3224,idn,Journal of the Indonesian Medical Association: Majalah Kedokteran Indonesia,4,154-160,63,Elektrokardiografi||penyakit jantung bawaan||aritmia,Petunjuk Praktis Membaca Elektrokardiografi pada Anak,Artikel
9997fb68-1424-475e-b633-f9eb353adfab,123456789/779||123456789/786||123456789/638,"Djer, Mulyadi M||Sastroasmoro, Sudigdo||Madiyono, Bambang",2020-03-29T04:37:41Z,2020-03-29T04:37:41Z,2013-05,"Background: Patent ductus arteriosus (PDA) is a common congenital heart disease causing some blood in the aorta to flow into the pulmonary artery (PA), resulting in dilatation of the left atrium (IA) and left ventricle (LY), increased B-type natriuretic peptide (BNP) level, and the development of heart failure.||Objectives: To evaluate the clinical course, changes in heart size and function, and BNP level after transcatheter closure of PDA using the Amplatzer® duct occluder (ADO).||Methods: This quasi-experimental study used a one-group, pretestposttest design, and was done on PDA patients who underwent transcatheter closure using ADO. The outcomes measurements were performed four times, namely, before the procedure and at one, three, and six months after the procedure. Results were compared using a serial time analysis. Outcomes measured were heart failure scores, chest x-ray (CXR) and echocardiography findings, and plasma BNP level.||Results: There were 23 PDA patients enrolled, of which 12 were females. Subjects' median bodyweight was 11 (range 6.6 to 55) kg. Prior to PDA closure, 12 subjects had mild heart fa ilure (class II) and 7 had moderate heart failure (class III). On follow-up at one month after the procedure, all subjects had improved heart failure scores (P<0.0001), and no heart failure was found on further follow up. Likewise, there was a decreased mean cardiothoracic ratio (CTR) from 58 to 55% at 1-month (P = 0.001), and also from 55 to 52% at3-month follow up (P<0.0001), but no further decrease was found afterwards (P = 0.798). The left atrium/aorta (LA/Ao) ratio measured by echocardiography also showed a statistically significant decrease from 1.6 prior to the procedure to 1.3 (P<0.0001) in the first month, but it remained stable afterwards. Diastolic function, represented by peak E and A waves also significantly decreased from 127 and 91 cm/sec, before the procedure, to 90 and 68 cm/sec, respectively, at 1 month follow-up (P <0.0001 and P < 0.0001, respectively).However, there were no statistically significant changes in E/ A ratio, ejection fract ion and fractional shortening. Plasma BNP level significantly decreased from 58 pg/mL before the procedure to 28 pg/mL at 1 month follow-up (P= 0 .001), but no further significant decrease was observed afterwards.||Conclusion: After PDA closure with ADO, we observe significant improvements in heart failure scores, heart size, diastolic function, and BNP level of our subjects especially in the first month after the procedure.","Made available in DSpace on 2020-03-29T04:37:41Z (GMT). No. of bitstreams: 0
  Previous issue date: 2013",https://doi.org/10.14238/pi53.3.2013.181-6,2338-476X,https://paediatricaindonesiana.org/index.php/paediatrica-indonesiana/article/view/278/176||http://localhost:8080/xmlui/handle/123456789/3225,eng,Paediatrica Indonesiana,3,181-186,53,heart failure score||heart size||heart function||B-type natriuretic peptide||patent ductus arteriosus||Amplatzer® duct occluder,"Heart size, heart function, and plasma B-type natriuretic peptide levels after transcatheter closure of patent ductus arteriosus",Journal Article
4ef3a8ef-54a1-497d-bd03-0ef86c439c4a,123456789/779||123456789/786||123456789/638,"Putra, Sukman Tulus||Djer, Mulyadi M||Idris, Nikmah Salamia||Samion, Hasri||Sastroasmoro, Sudigdo",2020-03-29T04:38:36Z,2020-03-29T04:38:36Z,2015-12-23,"BACKGROUND: Transcatheter closure of atrial septal defects (ASD) has been accepted world-wide as an alternative to surgical closure with excellent results. This interventional, non-surgical technique plays an important role in the treatment of ASD mostly in the developing world where resources are limited.||OBJECTIVES: To report the outcomes and short term follow-up of transcatheter closure of ASD over a 12-year period at our institution with limited resources.||PATIENTS AND METHODS: This retrospective study included all patients with the diagnosis of secundum ASD and significant shunting (Qp/Qs > 1.5:1) as well as dilated right atrium and right ventricle who had transcatheter closure at Integrated Cardiovascular Center (PJT), Dr. Cipto Mangunkusumo Hospital between October 2002 and October 2014. One hundred fifty-two patients enrolled in this study were candidates for device closure. Right and left heart cardiac catheterization was performed before the procedure. All patients underwent physical examination, ECG, chest X-ray and transthoracal echocardiography (TTE) prior to device implantation.||RESULTS: A total of 152 patients with significant ASD underwent device implantation. Subjects' age ranged from 0.63 to 69.6 years, with median 9.36 years and mean 16.30 years. They consisted of 33 (21.7%) males and 119 (78.3%) females, with mean body weight of 29.9 kg (range 8 to 75; SD 18.2). The device was successfully implanted in 150 patients where the majority of cases received the Amplatzer septal occluder (147/150; 98%) and the others received the Heart Lifetech ASD occluder (3/150, 2%), whereas two other cases were not suitable for device closure and we decided for surgical closure. The mean ASD size was 19.75 (range 14 - 25) mm. During the procedure, 5 (4.9%) patients had bradycardia and 3 (2.9%) patients had supraventricular tachycardia (SVT), all of which resolved.||CONCLUSIONS: In our center with limited facilities and manpower, transcatheter closure of atrial septal defect was effective and safe as an alternative treatment to surgery. The outcome and short-term follow-up revealed excellent results, but long-term follow-up is needed.","Made available in DSpace on 2020-03-29T04:38:36Z (GMT). No. of bitstreams: 0
  Previous issue date: 2015",10.5812/ijp.3906,2008-2150,https://www.ncbi.nlm.nih.gov/pmc/articles/PMC4662845/||http://localhost:8080/xmlui/handle/123456789/3237,eng,Iranian journal of pediatrics,6,e3906,25,Atrial Septal Defect||Limited Resources||Surgical Closure||Transcatheter Closure,Transcatheter Closure of Atrial Septal Defects in a Center With Limited Resources: Outcomes and Short Term Follow-Up,Journal Article
a96c1e22-bedd-496a-9ce0-864bca0fee2f,123456789/779||123456789/786||123456789/638||123456789/791,"Mochammading||Kaban, Risma Kerina||Yanuarso, Piprim B||Djer, Mulyadi M",2020-03-29T04:38:36Z,2020-03-29T04:38:36Z,2016-01,"Background: Patent ductus arteriosus (PDA) is a congenital heart disease most commonly occurring in premature infants. Spontaneous ductus arteriosus (DA) closure in premature infants has been suggested to be associated with duct lumen maturity and the DA sensitivity to prostaglandin E2 (PGE2).||Objective: To assess for a possible correlation between serum PGE2 levels and PDA size in premature infants.||Methods: This observational study using repeated measurements on premature infants with PDA detected at days 2-3 of life was undertaken in Cipto Mangunkusumo Hospital and Fatmawati Hospital, Jakarta, from April to May 2014. The PDA was diagnosed using 2-D echocardiography and PGE2 levels were measured by immunoassay. Pearson’s correlation test was used to evaluate a possible correlation between PGE2 level and DA diameter.||Results: Thirty-three premature infants of median gestational age 31 (range 28-32) weeks and median birth weight 1,360 (range 1,000-1,500) grams were enrolled. Almost two-thirds of the subjects were male. Almost all (30/33) subjects had spontaneous DA closure before the age of 10 days. Subjects’ mean DA diameter was 2.9 (SD 0.5) mm with maximum flow velocity of 0.2 (SD 0.06) cm/sec, and left atrial-to-aortic root ratio (LA/Ao) of 1.5 (SD 0.2). Their mean PGE2 levels at the ages of 2-3, 5-7, and after 10 days were 5,238.6 (SD 1,225.2), 4,178.2 (SD 1,534.5), and 915.2 (SD 151.6) pg/mL, respectively. The PGE2 level at days 2-3 was significantly correlated with DA diameter (r = 0.667; P < 0.001), but not at days 5-7 (r = 0.292; P = 0.105) or at day 10 (r = 0.041; P = 0.941).||Conclusion: There is a strong, positive correlation between the PGE2 level and DA diameter in preterm infants at 2-3 days of age. However, there is no significant correlation between PGE2 level and persistence of PDA.","Made available in DSpace on 2020-03-29T04:38:36Z (GMT). No. of bitstreams: 0
  Previous issue date: 2016",https://doi.org/10.14238/pi56.1.2016.8-14,2338-476X,https://paediatricaindonesiana.org/index.php/paediatrica-indonesiana/article/view/72/51||http://localhost:8080/xmlui/handle/123456789/3239,eng,Paediatrica Indonesiana,1,8-14,56,patent ductus arteriosus||prostaglandin E2||premature infants,Prostaglandin E2 and patent ductus arteriosus in premature infants,Journal Article
22b6051d-9bf2-4908-869d-ae2352fe5e88,123456789/779||123456789/786||123456789/638||123456789/791,"Iskandar, Raden Adhi Teguh Perma||Kaban, Risma Kerina||Djer, Mulyadi M",2020-03-29T04:38:36Z,2020-03-29T04:38:36Z,2019-11,"Background: Respiratory distress is the most common cause of morbidity in premature babies in the delivery room. Nasal continuous positive airway pressure (nCPAP) is widely used as the preferred modality of treatment, although it may cause nasal trauma. Heated, humidified high-flow nasal (HHHFN) cannula is an alternative oxygen therapy, yet the safety and efficacy has not been widely studied.||Objective: To compare the safety and efficacy of HHHFN and nCPAP in premature babies with gestational age > 28 to < 35 weeks and moderate respiratory distress.||Methods: We conducted a randomized, non-inferiority, clinical trial using HHHFN vs. nCPAP as a treatment for moderate respiratory distress within 72 hours after they had been used. The efficacy endpoints were treatment failure, length of device use, length of Kangaroo Mother Care (KMC), and full enteral feeding time. Safety assessment included pain score, nasal trauma, and systemic complications.||Results: No differences were found in terms of incidence of endotracheal intubation within < 72 hours of HHHFN (20%) compared to nCPAP (18%) (P=0.799). However, there was a significant difference in moderate nasal trauma in nCPAP (14%) compared to HHHFN (0%)(P=0.006). There were no significant differences of blood gas analysis results, full enteral feeding time, length of KMC, length of device use, and rate of complications (bronchopulmonary dysplasia/BPD, intraventricular hemorrhage/IVH, patent ductus arteriosus/PDA, necrotizing enterocolitis/NEC and late onset neonatal sepsis/LONS) between the nCPAP and HHHFN groups.||Conclusion: The HHHFN is not inferior to nCPAP in terms of the safety and efficacy as primary non-invasive therapy in premature babies of gestational age > 28 to < 35 weeks with moderate respiratory distress. Compared to nCPAP, HHHFN induced lower nasal trauma.","Made available in DSpace on 2020-03-29T04:38:36Z (GMT). No. of bitstreams: 0
  Previous issue date: 2019",https://doi.org/10.14238/pi59.6.2019.331-9,2338-476X,https://paediatricaindonesiana.org/index.php/paediatrica-indonesiana/article/view/2203/1991||http://localhost:8080/xmlui/handle/123456789/3247,eng,Paediatrica Indonesiana,6,331-339,59,premature||nCPAP||HHHFN||respiratory distress||non-inferiority trial,"Heated, humidified high-flow nasal cannula vs. nasal CPAP in infants with moderate respiratory distress",Journal Article
3bd9738e-2d9b-4fb2-b852-4b022c64f238,123456789/779||123456789/786||123456789/638,"Yantie, Ni Putu Veny Kartika||Djer, Mulyadi M||Advani, Najib||Rachmat, Jusuf",2020-03-29T04:38:36Z,2020-03-29T04:38:36Z,2016-05,"Background: The timing for Tetralogy of Fallot (ToF) repair is a subject of debate, however, in general repair before 3 years of age has resulted in good myocardial performance. Late repair has led to prolonged QRS duration, ventricular dysfunction in terms of myocardial performance index (MPI) and tricuspid annular plane systolic excursion (TAPSE), as well as longer intensive care unit (ICU) stays.||Objective: To evaluate QRS duration, right ventricular function as measured by TAPSE, and ICU length of stay (LoS) after repair of TOF performed after three years of age.||Methods: This retrospective cohort study was performed in children and adults who underwent ToF repair, with a minimum follow-up of 6 months. The TAPSE and QRS duration were evaluated during follow-up and compared between children who had the operation before vs. 3 years of age or older using Mann Whitney U and Chi-square tests.||Results: We enrolled 52 subjects who underwent ToF repair from January 2007 to June 2013 (18 in the ≤3 years-old group and 34 in the >3 years-old group). Subjects’ age at the time of repair ranged from 7 months to 25 years, with follow-up data at 24-30 months after discharge. Abnormalities of the right ventricle and left ventricle MPI were not significantly different between the two groups. However, we observed significant differences between the ≤3 years and >3 years groups in median ICU LoS [2 (range 1-9) days vs. 1.5 (range 1-46) days, respectively; (P=0.016)] and median QRS durations [118 (range 78-140) ms vs. 136 (range 80-190) ms, respectively; (P=0.039)]. The age at the time of repair did not increase the risk of having abnormal TAPSE (RR 0.85; 95%CI 0.26 to 2.79; P=0.798).||Conclusion: Tetralogy of Fallot repair after 3 years of age appears to not increase ICU LoS or is associated with lower TAPSE, but it is associated with longer QRS duration.","Made available in DSpace on 2020-03-29T04:38:36Z (GMT). No. of bitstreams: 0
  Previous issue date: 2016",https://doi.org/10.14238/pi56.3.2016.176-83,2338-476X,https://paediatricaindonesiana.org/index.php/paediatrica-indonesiana/article/view/234/138||http://localhost:8080/xmlui/handle/123456789/3241,eng,Paediatrica Indonesiana,3,176-183,56,tetralogy of Fallot||age at repair||ICU length of stay||QRS duration||TAPSE,Outcomes of Tetralogy of Fallot repair performed after three years of age,Journal Article
cc8e7f30-7185-4e5e-80cb-04cd1864fe89,123456789/779||123456789/786||123456789/638,"Djer, Mulyadi M||Idris, Nikmah Salamia||Angelina",2020-03-29T04:37:42Z,2020-03-29T04:37:42Z,2013-09,"Patent ductus arteriosus (PDA) is a common congenital heart disease, accounting for 5-10% of all congenital heart diseases. The incidence of PDA is even higher in preterm neonates, ranging from 20-60%. Closure of PDA is indicated in all cases, except for duct-dependent congenital heart diseases or PDA with Eisenmenger syndrome. In small asymptomatic PDAs, closure is indicated to prevent the risk of complications, such as endarteritis, endocarditis, aneurysm of ductus arteriosus, or congestive heart failure. In recent years, interventional cardiology has become a gold standard therapy for the majority of PDA cases beyond neonatal age. Since its introduction in 1967, many devices and methods have been developed to allow transcatheter closure of virtually all PDAs, regardless of size or configuration. Nevertheless, the tubular shape (type C) PDA, which has the highest residual shunt rate, still poses a great challenge for the interventionist. The second generation of Amplatzer® device occluders (ADO II), released in 2007, has been suggested to be effective in closing tubular PDAs.10 The purpose of this study was to report the initial clinical experience using ADO II to close a tubular type PDA in Indonesia.","Made available in DSpace on 2020-03-29T04:37:42Z (GMT). No. of bitstreams: 0
  Previous issue date: 2013",https://doi.org/10.14238/pi53.5.2013.291-4,2338-476X,https://paediatricaindonesiana.org/index.php/paediatrica-indonesiana/article/view/309/207||http://localhost:8080/xmlui/handle/123456789/3227,eng,Paediatrica Indonesiana,5,291-294,53,patent ductus arteriosus||tubular type (type C) PDA||Amplatzer® duct occluder II||interventional cardiology,Transcatheter closure of tubular type patent ductus arteriosus using Amplatzer® ductal occluder II: a case report,Journal Article
952f04f1-5f8c-4e21-ac88-65abd5589de7,123456789/779||123456789/786||123456789/638||123456789/792,"Idris, Nikmah Salamia||Cheung, Michael M H||Grobbee, Diederick E||Burgner, David||Kurniati, Nia||Djer, Mulyadi M||Uiterwaal, Cuno S P M",2020-03-29T04:38:36Z,2020-03-29T04:38:36Z,2015-08-01,"Background: Heart conduction disorders, such as prolongation of QT interval,have been reported in HIV-infected adults. However, little is known about such disorders in paediatric HIV, particularly in relation to delineation of the effects of HIV infection from treatment.||Methods: This cross-sectional study was performed in 165 perinatally-acquired HIV-infected (56 newly diagnosed antiretroviral treatment (ART) -naive, 58 ART-exposed) and 51 healthy age-matched children in Indonesia. We performed 12-lead ECG examinations to measure cardiac conduction parameters; QTc and QoTc (corrected using the Bazett’s formula), and PR intervals. The associations between HIV infection/treatment status and ECG intervals were evaluated using general linear modelling with further adjustment for potential confounders or ex-planatory variables. Findings are presented as (adjusted) mean differences between each of the two HIV groups (ART-naïve and ART-exposed) and healthy children.||Results: Compared to healthy children, QTc intervals were longer in ART-naïve (difference 18.3 milliseconds, 95% confidence interval (CI) 7.3 to 29.3) and, togreater extent, in ART-exposed HIV infected children (difference 27.9 milliseconds, 18.3 to 37.4). Following adjustment for RR interval, age, and height, prolongation of PR interval was seen only in ART-naïve HIV infected children, (difference 12.8 milliseconds, 2.3 to 23.3). Neither cardiac mass or function, high sensitivity C-reactive protein, lipid profile, gycoslyated haemoglobin levels, systolic and diastolic blood pressure, nor postnatal parental smoking exposure affected these associations. No difference in QoTc interval was observed between the groups.||Conclusions: Prolongation of QTc interval occurs in ART-naive HIV infected and,to a greater extent, in the ART-exposed children. In addition, ART-naive HIV infected children have a longer PR interval than healthy children.","Made available in DSpace on 2020-03-29T04:38:36Z (GMT). No. of bitstreams: 0
  Previous issue date: 2015",https://doi.org/10.1093/eurheartj/ehv401,1522-9645,https://watermark.silverchair.com/ehv401.pdf?token=AQECAHi208BE49Ooan9kkhW_Ercy7Dm3ZL_9Cf3qfKAc485ysgAAAogwggKEBgkqhkiG9w0BBwagggJ1MIICcQIBADCCAmoGCSqGSIb3DQEHATAeBglghkgBZQMEAS4wEQQMnCACvVmiEJFhSWVtAgEQgIICO7SzeEbuWjdaGtfWh2HT7-fBEBy6Bat6tLMIHXhvibqAXcv3R-9kFtHgRf3xqm-t91eLzCg1nRPllw49Fmx7wK0vluU9WwrRE95XSktAdZURukP8s9XJ3NOhP0f3V5k-O4OlBliP3XyrbI5jy1Ppew2fDr0QG3SudrmAykPN1kWyQONJBeBY2vDNsLwNg7AdSDOameO2fSM_CLx7sbD9DAdwkRUrAobDcYOI4gThG6zF44EEYXLnGXjKFHDozcDRhcX8E-f6uspxieB908qgmOaufJYfllySr88kQNc7ccJOGancPr3YdSpeF5BT8ell09_pJisaTztiN_a-hCpTMrYiZHkfjsXi8NnL5WyJdu5e9lWPPdjaIsaOIgrqLGSQ-J4Mjaji7yJEKOz0SWqCIrUCoZE8LSq2KtaRFhgeMsPUMMCkxpLL9yDjYYl3inOFzL5FYMvDhDa8U9Iqf_DQ65qwJeE2bIWoliD9yEhBGFKjY07rLnsKvz_AAfW4q3xSVaVCO326MfEZpNRDGqZLNQBrxflFdCvrzJZz0pBG7YpbGRqZexcBFbEQqLgGKrXnKN9D0pRUy9pUfYp3Gv52w4W9IE7HgE0RNEeyaM3DQ2Esrc4DY8Ty-pOmOj0t5QnwKwc13vLUt0Xc4l7Rdkhsoc33heGHjXgKI_I3Lnhn9tTZMBE4OEvt1kuteFxvX8A_GI7jj9FfR36RTHgrdMZklWahoOxXLpS8e65bHP4_n-uIhM5Qn66NB94FQ20||http://localhost:8080/xmlui/handle/123456789/3234,eng,European Heart Journal,Suppl 1,1133,36,,Effects of paediatric human immunodeficiency virus infection onelectrical conduction of the heart,Abstract
6253a14f-942a-428b-bce6-d85846d4fc2d,123456789/779||123456789/786||123456789/638||123456789/791,"Ramadhina, Nusarintowati||Sukardi, Rubiana||Advani, Najib||Rohsiswatmo, Rinawati||Putra, Sukman Tulus||Djer, Mulyadi M",2020-03-29T04:38:36Z,2020-03-29T04:38:36Z,2015-07-31,"Background: Hemodynamic instability in sepsis, especially in the neonatal population, is one of the leading causes of death in hospitalized infants. The major contribution for heart dysfunction in neonatal sepsis is the myocardial dysfunction that leads to decreasing of ventricular function. The combination of echocardiography and laboratory findings help us to understand the ventricular condition in preterm infants with sepsis.||Objective: To assess for a correlation between ventricular function and serum high-sensitivity cardiac troponin T (hs-cTnT) level in preterm infants with neonatal sepsis.||Methods: We prospectively studied 30 preterm infants with neonatal sepsis who were admitted to the neonatal intensive care unit (NICU) of Cipto Mangunkusumo Hospital from June 1 – August 31, 2013. The ventricular functions were measured using 2-dimensional echocardiography. The parameters of right ventricular (RV) function assessment were tricuspid annular plane systolic excursion (TAPSE) and RV myocardial performance index (MPI). For left ventricular (LV) performance, we assessed ejection fraction (EF), fractional shortening (FS), and LV-MPI. Serum hs-cTnT was measured and considered to be a marker of myocardial injury.||Results: Subjects had a mean gestational age of 31.5 (SD 2.18) weeks and mean birth weight of 1,525 (SD 437.5) g. The mean LV function measured by MPI was 0.281 (SD 0.075); mean EF was 72.5 (SD 5.09)%; and mean FS was 38.3 (SD 4.29)%. The RV function measured by TAPSE was mean 6.85 (SD 0.94) and that measured by MPI was median 0.255 (range 0.17-0.59). Serum hs-cTnT level was significantly higher in non-survivors than in survivors [282.08 (SD 77.81) pg/mL vs. 97.75 (24.2-142.2) pg/mL, respectively P =0.023]. There were moderate correlations between LV-MPI and hs-cTnT concentration (r=0.577; P=0.001), as well as between RV-MPI and hs-cTnT concentration (r=0.502; P=0.005). The positive correlation between LV and RV-MPI in neonatal sepsis was strong (r=0.77; P <0.001).||Conclusion: Left and right ventricular MPI show positive correlations with hs-cTnT levels. Serum hs-cTnT is significantly higher in non survivors. As such, this marker may have prognostic value for neonatal sepsis patients.","Made available in DSpace on 2020-03-29T04:38:36Z (GMT). No. of bitstreams: 0
  Previous issue date: 2015",https://doi.org/10.14238/pi55.4.2015.203-8,2338-476X,https://paediatricaindonesiana.org/index.php/paediatrica-indonesiana/article/view/25/842||http://localhost:8080/xmlui/handle/123456789/3233,eng,Paediatrica Indonesiana,4,203-208,55,preterm neonatal sepsis||myocardial performance index||hs-cTnT,Ventricular function and high-sensitivity cardiac troponin T in preterm infants with neonatal sepsis,Journal Article
ce3e8691-3da8-429f-aec8-100bd5826838,123456789/779||123456789/786||123456789/638||123456789/878||123456789/769||123456789/692,"Yantie, Ni Putu Veny Kartika||Djer, Mulyadi M||Suyatna, Fransiskus D||Timan, Ina S||Putra, Sukman Tulus||Rahayuningsih, Sri Endah||Bardosono, Saptawati||Gunawijaya, Eka",2020-03-29T04:38:36Z,2020-03-29T04:38:36Z,2017-10-01,"Background: Pathophysiology and treatment of ibuprofen in the mechanism of ductal closure full-term remain unclear.||Objective: Assessing the role of prostaglandins, VEGF, IPF and the effect of oral ibuprofen in the mechanism of ductus arteriosus (DA) closure.||Method: This study conducted at three hospitals in Denpasar, Bali from March to October 2015. First design, a cross-sectional design was conducted in patients with and without PDA aged ≥ 48 h to know the role of PGE2, VEGF and IPF. Second, a double-blind randomized controlled trial design in patients with PDA to determine the effect of ibuprofen in ductal closure. Patients with PDA were randomized to have placebo or oral ibuprofen with consecutive dose of 10-5-5 mg/kg/day. All consecutive subjects performed echocardiography, PGE2, VEGF and IPF examination on the first and fourth day.||Results: The mean level of PGE2 was higher in the group with PDA than non-PDA group, while there was no difference in the mean level of VEGF and IPF. Oral ibuprofen showed no effect in reducing DA diameter. There was a moderate positive association between mean differences of PGE2 and ductal diameter after treatment. No events of oliguria, NEC and IVH were recorded in both groups.||Conclusion: A high level of PGE2 appears to play a pivotal role in DA patency of fullterm neonates. Administration of oral ibuprofen in 10-5-5 mg/kg schedule could not induce PDA closure in full-term neonates.","Made available in DSpace on 2020-03-29T04:38:36Z (GMT). No. of bitstreams: 0
  Previous issue date: 2017",,0971-9032,https://www.alliedacademies.org/articles/oral-ibuprofen-in-fullterm-neonates-patent-ductus-arteriosus-closurediscerning-the-role-of-prostaglandin-vascular-endothelial-grow.pdf||http://localhost:8080/xmlui/handle/123456789/3245,eng,Current Pediatric Research,4,526-532,21,Full-term||Ibuprofen||IPF||Patent ductus arteriosus||PGE2||VEGF,"Oral ibuprofen in full-term neonate's patent ductus arteriosus closure: Discerning the role of prostaglandin, vascular endothelial growth factor, and immature platelet fraction",Journal Article
623dcd05-8d17-40fe-bdd7-949c8f12baeb,123456789/779||123456789/783||123456789/787||123456789/646,"Chunnaedy, Swanty||Pardede, Sudung O||Djer, Mulyadi M",2020-03-29T04:38:36Z,2020-03-29T04:38:36Z,2014-08,"Latar belakang: Penyakit ginjal kronik merupakan terminologi baru untuk pasien yang mengalami kerusakan ginjal paling sedikit selama tiga bulan dengan atau tanpa penurunan LFG. Terminologi ini belum banyak digunakan di Indonesia sehingga karakteristik dan kesintasan PGK stadium 3 dan 4 pada anak belum banyak diteliti.||Tujuan: Mendapatkan karakteristik dan kesintasan PGK stadium 3 dan 4 pada anak yang berobat di Departemen Ilmu Kesehatan Anak FKUI-RSCM.||Metode: Penelitian kohort prospektif historikal ini diambil dari rekam medis pasien dengan PGK stadium 3 dan 4 menurut kiriteria NKF KDOQI di Departemen Ilmu Kesehatan Anak FKUI-RSCM sejak Januari 2004 hingga 30 November 2012. Kesintasan dianalisis dengan menggunakan Kaplan Meier dengan event yang dinilai adalah PGK stadium 5 atau kematian.||Hasil: Terdapat 50 rekam medis yang masuk dalam analisis, terdiri atas 36 subjek PGK stadium 3 dan 14 subjek PGK stadium 4. Median usia adalah 7,9 (2-15) tahun dengan jenis kelamin perempuan (58%) sedikit lebih banyak dari pada laki-laki (42%). Etiologi terbanyak adalah glomerulonefritis (56%) dengan sindrom nefrotik memiliki proporsi terbesar. Gambaran klinis yang ditemukan adalah hipertensi (42%), gizi kurang (40%), anemia (70%), gangguan elektrolit (78%), asidosis (34%), proteinuria (72%), perawakan pendek (56%), osteodistrofi renal (2%), dan kardiomiopati dilatasi (14 %). Median kesintasan keseluruhan adalah 57,13 bulan (IK 95% 11,18 sampai 103,09).||Kesimpulan: Penyakit ginjal kronik stadium 3 dan 4 sedikit lebih banyak terjadi pada perempuan dengan etiologi terbanyak adalah glomerulonefritis. Komplikasi yang paling sering adalah gangguan elektrolit, anemia, perawakan pendek, gizi kurang, dan hipertensi. Median kesintasan keseluruhan adalah 57,13 bulan (IK 95 % 11,18 sampai 103,09).","Made available in DSpace on 2020-03-29T04:38:36Z (GMT). No. of bitstreams: 0
  Previous issue date: 2014",http://dx.doi.org/10.14238/sp16.2.2014.71-8,2338-5030,https://saripediatri.org/index.php/sari-pediatri/article/view/180/40||http://localhost:8080/xmlui/handle/123456789/3229,idn,Sari Pediatri,2,71-78,16,penyakit ginjal kronik||anak||kesintasan,Karakteristik dan Kesintasan Penyakit Ginjal Kronik Stadium 3 dan 4 pada Anak di Departemen Ilmu Kesehatan Anak FKUI-RSCM,Artikel Penelitian
05c6ce3d-48de-4bde-b506-c62fcb997cc9,123456789/779||123456789/786||123456789/638||123456789/791,"Adriansyah, Rizky||Idris, Nikmah Salamia||Djer, Mulyadi M||Putra, Sukman Tulus||Rohsiswatmo, Rinawati",2020-03-29T04:38:36Z,2020-03-29T04:38:36Z,2017-07,"Background: Indomethacin and ibuprofen are the drugs of choice for closure of patent ductus arteriosus (PDA) in preterm infants. However, intravenous preparations are of limited availability in Indonesia. Circumstantial evidence has shown that intravenous paracetamol may be an alternative therapy for PDA closure in premature infants.||Objective: To evaluate the effect of intravenous paracetamol on PDA closure in preterm infants.||Methods: A before-and-after study was conducted between May and August 2014 in Cipto Mangunkusumo General Hospital, Jakarta in preterm infants with hemodynamically significant PDAs, as established by echocardiography using the following criteria: duct diameter >1.4 mm/kg, left atrium to aorta ratio >1.4, and mean velocity in the left pulmonary artery >0.42 m/s or mean diastolic velocity in the left pulmonary artery >0.2 m/s. Subjects, aged 2 and 7 days, received intravenous paracetamol (15 mg/kg every six hours) for 3 days. Paired T-test was used to compare pre-intervention PDA diameter to those assessed at 24 hours after the intervention and at 14 days of life.||Results: Twenty-nine subjects had a mean gestational age of 30.8 weeks and mean birth weight of 1,347 grams. Nineteen (65.5%) patients had closed PDAs at the day 14 evaluation, 1 experienced PDA reopening, and 9 had failed PDA closure. No liver toxicity was identified. Mean duct diameters before, 24 hours after the intervention, and at 14 days of life were 3.0, 0.9, and 0.6 mm, respectively (P<0.0001).||Conclusion: Intravenous paracetamol seems to be reasonably effective for PDA closure in preterm infants.","Made available in DSpace on 2020-03-29T04:38:36Z (GMT). No. of bitstreams: 0
  Previous issue date: 2017",https://doi.org/10.14238/pi57.4.2017.198-204,2338-476X,https://paediatricaindonesiana.org/index.php/paediatrica-indonesiana/article/view/1350/pdf||http://localhost:8080/xmlui/handle/123456789/3244,eng,Paediatrica Indonesiana,4,198-204,57,intravenous paracetamol||patent ductus arteriosus||preterm neonates,Intravenous paracetamol and patent ductus arteriosus closure in preterm infants,Journal Article
f3e05094-d2f4-4ce7-ac22-86ab1a7aa3cd,123456789/779||123456789/786||123456789/638,"Wati, Dyah Kanya||Sastroasmoro, Sudigdo||Madjid, Amir||Boedina, Siti||Djer, Mulyadi M||Santoso, Hendra",2020-03-29T04:38:36Z,2020-03-29T04:38:36Z,2016-02,"Objective: to evaluate cardiac heart lactate, superior cava vein saturation and microcirculation dysfunction as cardiac output predictors after surgery on patients with Tetralogy of Fallot (TF) through measuring serum level of sTNFR-1 and IL-6.||Design: cohort study.||Setting: Cipto Mangunkusumo Hospital.||Patient and participants: Subjects were children aged 1 to 6 years that underwent corrective surgery. Subjects who met the inclusion criteria were divided into 2 groups after ischemiareperfusion injury (post surgery). The first group was subjects with high cardiac lactate and the second group was subjects with low cardiac lactate.||Measurements and results: Subjects were observed for 24 hours; during surgery, 6 and 24 hours after aortic clamp removed. During July 2012 – December 2013, there were 52 patients who became subjects. There were proportion differences between cardiac lactate and cardiac output change after cardiac surgery. Increase of cardiac lactate has a correlation with increasing levels of sTNFR-1 and IL-6 and decreasing index of Tc, ScvO2 and cardiac output. There were correlations among low index of ScvO2, high index of cardiac lactate and decrease of cardiac output. High sTNFR-1 and IL-6 were correlated to low cardiac output. Cardiac lactate, ScvO2 and MAP can be used as predictors of cardiac output change in patients with cardio-pulmonary bypass. sTNFR-1 and IL-6 levels were correlated with cardiac output changes after cardiac surgery.||Conclusion: Cardiac lactate and ScvO2 are valuable in measuring cardiac output changes on patient with cardio-pulmonary bypass.","Made available in DSpace on 2020-03-29T04:38:36Z (GMT). No. of bitstreams: 0
  Previous issue date: 2016",,1410-7767,https://repositori.unud.ac.id/protected/storage/upload/repositori/1b821a2feae81a432778143734826792.pdf||http://localhost:8080/xmlui/handle/123456789/3240,eng,Critical Care and Shock,1,14-20,19,Cardio-pulmonary bypass||IL-6||cardiac lactate||ScvO2||sTNFR-1||tetralogy of Fallot,Superior cava vein saturation and cardiac lactate as cardiac output predictor after cardio-pulmonary bypass on children,Journal Article
619dec98-8926-4776-9fe8-98a8271fcdb7,123456789/779||123456789/786||123456789/638,"Djer, Mulyadi M||Saputro, Dimas Dwi||Putra, Sukman Tulus||Idris, Nikmah Salamia",2020-03-29T04:38:36Z,2020-03-29T04:38:36Z,2015-03-07,"Transcatheter closure of patent ductus arteriosus (PDA) has been suggested to be the standard treatment of PDA. Although, in general, the procedure shows a high successful rate, outcomes may vary among pediatric cardiology centers. To evaluate the effectiveness of transcatheter closure of PDA in Cipto Mangunkusumo Hospital, Jakarta, Indonesia, this was a retrospective study on patients who underwent transcatheter closure of PDA in Cipto Mangunkusumo Hospital during the period of 2002-2013. Hospital registry was reviewed and data about patients' characteristics, PDA severity, procedure, and outcomes were retrieved. There were 298 patients, of whom 90 were males, who underwent transcatheter closure of PDA during the study period. Median age was 3.4 years (1 months-18 years), and median body weight was 12 (3.6-59) kg. The diameter of PDA ranged from 1.1 to 15.4 mm with a median of 3.7 mm. Device could be deployed in all patients, in which most were the Amplatzer ductal occluder (69.8 %) and the remainders were coils. Median fluoroscopy time was 15.4 (1.5-87) min, and procedure time was 76 (30-200) min. Complete closure was achieved in most patients (97.3 %), whereas device migration occurred in a minority (0.3 %) of patients. No major complication occurred during or after the procedure. Transient anemia and bradycardia were found in 3.7 and 1.3 % patients, respectively. Most patients were discharged from the hospital at 1 day after the procedure. Transcatheter closure method is a safe and effective procedure to close PDA.","Made available in DSpace on 2020-03-29T04:38:36Z (GMT). No. of bitstreams: 0
  Previous issue date: 2015",10.1007/s00246-015-1128-2,1432-1971,https://www.ncbi.nlm.nih.gov/pmc/articles/PMC4432078/||https://link.springer.com/article/10.1007%2Fs00246-015-1128-2||http://localhost:8080/xmlui/handle/123456789/3230,eng,Pediatric cardiology,5,1070-1074,36,,"Transcatheter Closure of Patent Ductus Arteriosus: 11 Years of Clinical Experience in Cipto Mangunkusumo Hospital, Jakarta, Indonesia",Journal Article
c8b48489-b07f-4ca5-a26e-1377d39bb084,123456789/779||123456789/786||123456789/638,"Djer, Mulyadi M",2020-03-29T04:38:36Z,2020-03-29T04:38:36Z,2019-03,"Aritmia atau lebih tepatnya disebut dengan disritmia, merupakan kelainan irama jantung yang cukup sering ditemukan pada praktek sehari-hari. Gejala klinisnya bervariasi dari yang paling ringan tanpa gejala sampai bentuk yang paling berat dengan tanda gagal sirkulasi. Jenis aritmia dikelompokkan menjadi 2 kelompok yaitu takiaritmia dan bradiaritmia. Untuk menegakkan diagnosis aritmia, EKG merupakan baku emas, sehingga tata laksana sudah dapat diberikan. Sebagai praktisi, harus mampu mengenal 3 jenis aritmia yang sering ditemukan yaitu takikardia supraventrikel, takikardia ventrikel dan blok AV total. Ke 3 jenis aritmia ini kalau terlambat ditata laksana akan menimbulkan dampak klinis yang bermakna. Tata laksana meliputi tata laksana segera dengan menggunakan perasat atau obat-batan, tata laksana jangka panjang dan tata laksana invasif. Dalam menegakkan diagnosis, langkah pertama adalah menentukan jenis aritmia apakah takiaritmia atau bradiaritmia. Pada jenis takiaritmia, langkah berikutnya adalah menentukan asal/fokus iramanya apakah di atas, pada atau di bawah hubungan atrio-ventrikel (AV junction) dengan melihat kompleks QRS. Jika komplek QRS sempit artinya fokus ada di atas hubungan atrio-ventrikel, jika QRS lebar fokus ada di bawah hubungan atrio-ventrikel. Pada blok AV, langkah pertama yang perlu dilakukan adalah mengukur interval PR. Pada blok AV derajad 1, interval PR konstan tapi memanjang. Pada blok AV derajad 2, interval PR konstan kecuali Mobitz I. Pada blok AV total, interval PR tidak konstan.","Made available in DSpace on 2020-03-29T04:38:36Z (GMT). No. of bitstreams: 0
  Previous issue date: 2019",,978-602-61558-2-5,http://staff.ui.ac.id/system/files/users/najib.advani/publication/simposium_pediatric_cardiology_update_vii_palembang_6-7_april_2019.pdf||http://localhost:8080/xmlui/handle/123456789/3246,idn,IDAI Sumatera Selatan bekerja sama dengan Fakultas Kedokteram Universitas Sriwijaya/RSUP Dr. Moh. Hosein Palembang,,79-91,,,Identification of Arrhythmias in Children: Tips and Tricks,Book Chapter
f5c01c70-66fe-43b0-b11d-1c201aa07d0d,123456789/779||123456789/677||123456789/786||123456789/638||123456789/692||123456789/934,"Sukardi, Rubiana||Sastroasmoro, Sudigdo||Siregar, Nurjati C||Djer, Mulyadi M||Suyatna, Franciscus D||Sadikin, Mohammad||Ibrahim, Nurhadi||Rahayuningsih, Sri E||Witarto, Arief B",2020-03-29T04:38:36Z,2020-03-29T04:38:36Z,2015-04-28,"BACKGROUND: Cardiopulmonary bypass during tetralogy of Fallot corrective surgery is associated with oxidative stress, and contributes to peri-operative problems. Curcumin has been known as a potent scavenger of reactive oxygen species, which enhances the activity of antioxidants and suppresses phosphorylation of transcription factors involved in inflamation and apoptosis.||OBJECTIVES: To evaluate the effects of curcumin as an antioxidant by evaluating the concentrations of malondialdehyde and glutathione, activity of nuclear factor-kappa B, c-Jun N-terminal kinase, caspase-3, and post-operative clinical outcomes.||METHODS: Tetralogy of Fallot patients for corrective surgery were randomised to receive curcumin (45 mg/day) or placebo orally for 14 days before surgery. Malondialdehyde and glutathione concentrations were evaluated during the pre-ischaemia, ischaemia, re-perfusion phases, and 6 hours after aortic clamping-off. Nuclear factor-kappa B, c-Jun N-terminal kinase, and caspase-3, taken from the infundibulum, were assessed during the pre-ischaemia, ischaemia, and re-perfusion phases. Haemodynamic parameters were monitored until day 5 after surgery.||RESULTS: In all the observation phases, malondialdehyde and glutathione concentrations were similar between groups. There was no significant difference in nuclear factor-kappa B activity between the groups for three observations; however, in the curcumin group, c-Jun N-terminal kinase significantly decreased from the pre-ischaemia to the re-perfusion phases, and caspase-3 expression was lower in the ischaemia phase. Patients in the curcumin group had lower temperature and better ventricular functions, but no significant differences were found in mechanical ventilation day or length of hospital stay in the two groups.||CONCLUSION: Cardioprotective effects of curcumin may include inhibition of the c-Jun N-terminal kinase pathway and caspase-3 in cardiomyocytes, particularly in the ischaemia phase.","Made available in DSpace on 2020-03-29T04:38:36Z (GMT). No. of bitstreams: 0
  Previous issue date: 2015",10.1017/S1047951115000360,1467-1107,https://www.cambridge.org/core/journals/cardiology-in-the-young/article/role-of-curcumin-as-an-inhibitor-of-oxidative-stress-caused-by-ischaemia-reperfusion-injury-in-tetralogy-of-fallot-patients-undergoing-corrective-surgery/48936477E4AC3ACBDD4C8CD2E626C448||http://localhost:8080/xmlui/handle/123456789/3231,eng,Cardiology in the young,3,431-438,26,Curcumin||apoptosis||ischaemia re-perfusion injury,The role of curcumin as an inhibitor of oxidative stress caused by ischaemia re-perfusion injury in tetralogy of Fallot patients undergoing corrective surgery,Journal Article