id,collection,dc.contributor.author[en_US],dc.date.accessioned,dc.date.available,dc.date.issued,dc.description.abstract[en_US],dc.description.provenance[en],dc.identifier.doi,dc.identifier.issn,dc.identifier.uri,dc.language,dc.publisher,dc.publisher.issue,dc.publisher.page,dc.publisher.volume,dc.subject,dc.title[en_US],dc.type
  Previous issue date: 2017",https://doi.org/10.14238/pi38.9-10.1998.193-204,2338-476X,https://paediatricaindonesiana.org/index.php/paediatrica-indonesiana/article/view/1569/1299||http://localhost:8080/xmlui/handle/123456789/1960,eng,Paeditrica Indonesiana,2,193-204,38,,Prevalence and Influencing Factors of Obesity in Elementary School Children,Journal Article
b8cf6679-e626-4c92-9e89-47323ad6ee29,123456789/779||123456789/786||123456789/638,"Djer, Mulyadi M",2020-03-29T04:38:36Z,2020-03-29T04:38:36Z,2017,,"Made available in DSpace on 2020-03-29T04:38:36Z (GMT). No. of bitstreams: 0
09505b76-d50b-4054-888a-f174285bd3e4,123456789/779||123456789/786||123456789/638||123456789/792,"Idris, Nikmah Salamia||Cheung, Michael M H||Grobbee, Diederick E||Burgner, David||Kurniati, Nia||Djer, Mulyadi M||Uiterwaal, Cuno S P M",2020-03-29T04:38:36Z,2020-03-29T04:38:36Z,2016,"OBJECTIVE: To investigate the effects of HIV infection in children on heart electrical conduction, particularly to delineate the effects of HIV infection from treatment.||METHODS: On a 12-lead ECG, available for 37 antiretroviral therapy (ART) naïve, 42 ART-exposed vertically-acquired HIV-infected and 50 healthy children in Jakarta, Indonesia, we measured cardiac conduction parameters: PR, QRS, and QTc (corrected using Bazett's formula) intervals. The associations between HIV infection/treatment status and ECG intervals were evaluated using general linear modelling with further adjustment for potential confounders or intermediary variables. Findings are presented as (adjusted) mean differences between each of the two HIV groups and healthy children.||RESULTS: Although not exceeding the clinical threshold for long QT (QTc >460 ms for girls and >440 ms for boys) compared to healthy children, mean QTc intervals were longer in ART-naïve (difference 18.2 ms, 95% CI 7.0 to 29.3) and, to greater extent, in ART-exposed HIV-infected children (difference 28.9 ms, 19.3 to 38.5). Following adjustment for RR interval, age and height, prolongation of PR interval was seen only in ART-naïve HIV-infected children (difference 12.9 ms, 2.4 to 23.3). Cardiac mass/function, high-sensitive C reactive protein, cholesterol and glycated haemoglobin levels, systolic and diastolic blood pressures, or postnatal parental smoking exposure did not affect these associations. No difference in the QRS interval was observed between groups.||CONCLUSIONS: Prolongation of the QTc interval occurs in ART-naïve HIV-infected children and, to a greater extent, in the ART-exposed children, whereas a longer PR interval appears to be seen only among ART-naïve HIV-infected children.","Made available in DSpace on 2020-03-29T04:38:36Z (GMT). No. of bitstreams: 0
fc66c11d-f7cb-4cb0-b2f2-aea7d573925f,123456789/779||123456789/786||123456789/638,"Marwali, Eva M||Budiwardhana, Novik||Prakoso, Radityo||Fakhri, Dicky||Boom, Cindy E||Djer, Mulyadi M||Sastroasmoro, Sudigdo||Portman, Michael A",2020-03-29T04:38:36Z,2020-03-29T04:38:36Z,2015-11-06,"Background: In Indonesia, children with congenital heart disease (CHD) usually present later for corrective surgery than in developed countries. These children show chronic malnutrition associated with low thyroid hormone levels, which decline further immediately after open-heart surgery.||Objectives: To test the hypothesis that oral triiodothyronine (T3) supplementation improves clinical outcome indexed by time to extubation (TTE) after aortic cross-clamp release.||Methods: The study was a single center, randomized, double blind, and placebo controlled trial in children with CHD younger than 2 years of age undergoing open-heart surgery. Oral T3 or placebo was administered every 6 hours for 60 hours. TTE served as the primary endpoint. Hemodynamics, echocardiography parameters, inotropic score, fluid balance, diuresis, and sepsis complication were serially recorded and evaluated as secondary endpoints.||Results: A total of 78 patients were allocated to T3 group and 74 patients to the control group. Oral T3 prevented the declination in serum T3 noted in control group. The T3 group had a shorter time to extubation than placebo with a mean (SD) 25.99(24.30) and 40.71(56.29) hours, respectively and a hazard ratio for chance of extubation (95% CI) 1.49 (1.06-2.11), p=0.02. The median (IQ) cardiac index increased significantly after surgery in T3 (day 1 vs. day 2, 3.28 (2.46 - 4.46) to. 3.65 (2.65 - 4.77) L/min/m2, p=0.01), but not in the placebo group. More diuresis and a significantly more negative fluid balance (p=0.03) were found in T3 group during the first 72 hours post surgery. No difference in the use of inotropic agents or loop diuretics. Sepsis was significantly lower in T3 group with incidence (%) of sepsis in T3 and placebo group 1(1) vs. 10(13) patients, (p=0.004), respectively. Otherwise there was no difference in adverse events including arrhythmia.||Conclusion: Oral T3 supplementation is safe and provides multiple clinical benefits in an extremely vulnerable population of children in a developing country. Any reduction in TTE could improve sparse resources by increasing ventilator and ICU availability.","Made available in DSpace on 2020-03-29T04:38:36Z (GMT). No. of bitstreams: 0
  Previous issue date:    6",http://dx.doi.org/10.14238/sp17.1.2015.9-16,2338-5030,https://saripediatri.org/index.php/sari-pediatri/article/view/141/122||http://localhost:8080/xmlui/handle/123456789/3232,idn,Sari Pediatri,1,9-16,17,DSV perimembran||perbandingan||transkateter||pembedahan,Perbandingan Luaran dan Biaya Penutupan Defek Septum Ventrikel Perimembran secara Transkateter dan Pembedahan,Artikel Penelitian
7d1f1a8c-afa8-4181-af31-9b64f82fdc68,123456789/779||123456789/812||123456789/786||123456789/638||123456789/805,"Djer, Mulyadi M||Idris, Nikmah Salamia||Alwi, Idrus||Wijaya, Ika P",2020-03-27T14:05:31Z,2020-03-27T14:05:31Z,2014-07-01,"Transcatheter closure of perimembranous and muscular ventricular septal defect (VSD) has been performed widely and it has more advantages compare to surgery. However, transcatheter closure of residual VSD post operation of complex congenital heart disease is still challenging because of the complexity of anatomy and concern about device stability, so the operator should meticulously choose the most appropriate technique and device. We would like to report a case of transcatheter closure of residual VSD post Rastelli operation in a patient with double outlet right ventricle (DORV), sub-aortic VSD, severe infundibulum pulmonary stenosis (PS) and single coronary artery. The patient had undergone operations for four times, but he still had intractable heart failure that did not response to medications. On the first attempt. we closed the VSD using a VSD occluder, unfortunately the device embolized into the descending aorta, but fortunately we was able to snare it out. Then we decided to close the VSD using a patent ductus arteriosus (PDA occluder). On transesophageal echocardiography (TEE) and angiography evaluation, the device position was stable. Post transcatheter VSD closure, the patient clinical condition improved significantly and he could finally be discharged after a long post-surgery hospitalization. Based on this experience we concluded that the transcatheter closure of residual VSD in complex CHD using PDA occluder could be an effective alternative treatment.","Made available in DSpace on 2020-03-27T14:05:31Z (GMT). No. of bitstreams: 0
  Previous issue date:    7",,0125-9326,http://www.inaactamedica.org/archives/2014/25348186.pdf||http://localhost:8080/xmlui/handle/123456789/2695,eng,Acta medica Indonesiana,3,233-237,46,residual VSD||PDA occluder||transcatheter closure||heart failure||Rastelli,Transcatheter closure of post-operative residual ventricular septal defect using a patent ductus arteriosus closure device in an adult: a case report,Case Report
  Previous issue date: 2013",,2338-5030,https://saripediatri.org/index.php/sari-pediatri/article/view/306/248||http://localhost:8080/xmlui/handle/123456789/1897,ind,Sari Pediatri,4,32-38,15,hiperglikemia||sakit kritis||luaran||skor PELOD,Faktor yang Berhubungan dengan Hiperglikemia dan Luarannya pada Anak Sakit Kritis,Journal Article
  Previous issue date:    3",https://doi.org/10.14238/pi53.2.2013.108-16,2338-476X,https://paediatricaindonesiana.org/index.php/paediatrica-indonesiana/article/view/263/163||http://localhost:8080/xmlui/handle/123456789/3223,eng,Paediatrica Indonesiana,2,108-116,53,secundum ASD||comparison||Amplatzer septal occluder||surgery,Comparison of surgical vs. non-surgical closure procedures for secundum atrial septal defect,Journal Article
83faab5c-bc5b-4f7f-90b2-1e91a94d8bb9,123456789/779||123456789/786||123456789/638,"Djer, Mulyadi M",2020-03-29T04:37:41Z,2020-03-29T04:37:41Z,2013,,"Made available in DSpace on 2020-03-29T04:37:41Z (GMT). No. of bitstreams: 0
d7dba9ca-4ea5-44c9-82a7-81918969b502,123456789/779||123456789/786||123456789/638,"Djer, Mulyadi M",2020-03-29T04:37:41Z,2020-03-29T04:37:41Z,2012,"Takikardia supraventrikular atau supraventricular tachycardia, selanjutnya disingkat dengan SVT, merupakan kedaruratan kardiovaskular yang sering ditemukan pada bayi dan anak. Angka kejadian SVT diperkirakan antara 1 per 25.000 sampai 1 per 250. Deteksi dini SVT dan tata laksana yang tepat dan cepat sangat penting. SVT yang tidak ditata laksana dengan cepat dan tepat dan berlangsung lebih dari 24-36 jam menimbulkan gagal jantung kongestif atau gagal sirkulasi. Untuk mengenal SVT, pada makalah ini akan diuraikan terlebih dulu anatomi sistem konduksi dan gambaran elektrokardiografi (EKG) normal. Setelah itu akan dijelaskan definisi SVT, mekanisme terjadinya SVT serta tata laksana SVT terkini.","Made available in DSpace on 2020-03-29T04:37:41Z (GMT). No. of bitstreams: 0
6778aa25-7c8d-4d52-91d7-7ef33ce4cbdd,123456789/786||123456789/638||123456789/779||123456789/847,"Djer, Mulyadi M||Anggriawan, Shirley L||Gatot, Djajadiman||Amalia, Pustika||Sastroasmoro, Sudigdo||Widjaja, Patricia",2019-11-28T01:13:26Z,2019-11-28T01:13:26Z,2013-10,"AIM: to assess for a correlation between T2*CMR with LV function and mass in thalassemic patients with iron overload.||METHODS: a cross-sectional study on thalassemic patients was conducted between July and September 2010 at Cipto Mangunkusumo and Premier Hospitals, Jakarta, Indonesia. Clinical examinations, review of medical charts, electrocardiography, echocardiography, and T2*CMR were performed. Cardiac siderosis was measured by T2*CMR conduction time. Left ventricle diastolic and systolic functions, as well as LV mass index were measured using echocardiography. Correlations between T2*CMR and echocardiography findings, as well as serum ferritin were determined using Pearson's and Spearman's tests.||RESULTS: thirty patients aged 13-41 years were enrolled, of whom two-thirds had -thalassemia major and one-third had HbE/-thalassemia. Diastolic dysfunction was identified in 8 patients, whereas systolic function was normal in all patients. Increased LV mass index was found in 3 patients. T2*CMR conduction times ranged from 8.98 to 55.04 ms and a value below 20 ms was demonstrated in 14 patients. There was a statistically significant moderate positive correlation of T2*CMR conduction time with E/A ratio (r = 0.471, P = 0.009), but no correlation was found with LV mass index (r=0.097, P=0.608). A moderate negative correlation was found between T2*CMR and serum ferritin (r = -0.514, P = 0.004), while a moderate negative correlation was found between serum ferritin and E/A ratio (r = -0.425, P = 0.019).||CONCLUSION: T2*CMR myocardial conduction time has a moderate positive correlation with diastolic function, moderate negative correlation with serum ferritin, but not with LV mass index and systolic function.","Made available in DSpace on 2019-11-28T01:13:26Z (GMT). No. of bitstreams: 0
  Previous issue date: 2013",,0125-9326,http://www.inaactamedica.org/archives/2013/24448334.pdf||http://localhost:8080/xmlui/handle/123456789/1081,eng,Acta medica Indonesiana,4,295-301,45,,Correlation between T2* cardiovascular magnetic resonance with left ventricular function and mass in adolescent and adult major thalassemia patients with iron overload.,Journal Article
bccd9d34-73c1-4a09-af2d-29ede19a5e92,123456789/786||123456789/842||123456789/638||123456789/779||123456789/847,"Djer, Mulyadi M||Ramadhina, Nuvi N||Idris, Nikmah S||Wilson, Dedi||Alwi, Idrus||Yamin, Muhammad||Wijaya, Ika P",2019-11-28T01:13:25Z,2019-11-28T01:13:25Z,2013-07,"AIM: to evaluate the results of transcatheter closure of atrial septal defect (ASD) in adolescents and adult.||METHODS: a case series of patients undergoing transcatheter closure of ASD in RS Cipto Mangunkusumo, Jakarta during 2002 -2013. Transesophageal echocardiography, hemodynamic study, and angiography were performed before the procedure. Oxygen test was done if PA pressure was more than 2/3 of aortic pressure, followed by an occlusion test if no response observed to determine whether the device could be released.||RESULTS: we enrolled 54 patients, of whom 26% were adolescents and 3% were males. Median body weight was 49 (26-75) kg and ASD size was 21 (9.4-39.6) mm. The procedure was done under general anesthesia in 26% of patients. Oxygen test was applied in 11% patients and occlusion test in 2% of patient. Transcatheter closure of ASD was successful in all patients using common technique (31%), right pulmonary vein-assisted (65%), left pulmonary assisted (2%), and cutting long sheath (2%). There was neither residual ASD nor complications observed. Mean fluoroscopy and procedure time were 29 (SD 18) and 109 (SD 36) minutes, respectively. Median hospital stay was 1 (1-3) day.||CONCLUSION: transcatheter closure of ASD in adolescents and adults is safe and effective.","Made available in DSpace on 2019-11-28T01:13:25Z (GMT). No. of bitstreams: 0
  Previous issue date: 2013",,0125-9326,http://www.inaactamedica.org/archives/2013/24045387.pdf||http://localhost:8080/xmlui/handle/123456789/1075,eng,Acta medica Indonesiana,3,180-6,45,,Transcatheter closure of atrial septal defects in adolescents and adults: technique and difficulties.,Journal Article
6a57b135-f5e5-424d-a4fe-6d2eecdabfc4,123456789/779||123456789/786||123456789/842||123456789/638||123456789/847,"Marwali, Eva M||Caesa, Putri||Darmaputri, Sekarpramita||Sani, Alvin A||Roebiono, Poppy S||Fakhri, Dicky||Djer, Mulyadi M||Munasir, Zakiudin||Batubara, Jose R L||Satroasmoro, Sudigdo||Portman, Michael A||Haas, Nikolaus A",2019-12-03T04:16:06Z,2019-12-03T04:16:06Z,2019-08,"The oral triiodothyronine for infants and children undergoing cardiopulmonary bypass (OTICC) trial showed that Triiodothyronine (T3) supplementation improved hemodynamic and clinical outcome parameters. We tested the validity of low cardiac output syndrome (LCOS), derived using clinical parameters and laboratory data, by comparing the LCOS diagnosis with objective parameters commonly measured in a cardiac intensive care unit (CCU) setting. OTICC, a randomized, placebo-controlled trial included children younger than 3 years with an Aristotle score between 6 and 9. We used the existing trial data set to compare the LCOS diagnosis with echocardiographic hemodynamic parameters. Additionally, we determined if LCOS, prospectively assigned during a clinical trial, served as an early predictor of clinical outcomes. All LCOS subjects at 6 and 12 h after cross-clamp release later showed significantly lower pulse pressure, stroke volume and cardiac output, and higher systemic vascular resistance. These LCOS patients also had significantly longer time to extubation (TTE) and higher mortality rate. LCOS incidence was significantly lower in the T3 treatment group [n?=?86 vs. 66, respectively, p?<?0.001; OR (95% CI) 0.43 (0.36-0.52)] particularly at 6 h. Also, LCOS patients in the placebo group had significantly lower FT3 serum levels over time. These analyses confirm that early clinically defined LCOS successfully predicts cardiac dysfunction determined later by objective hemodynamic echocardiographic parameters. Furthermore, early LCOS significantly impacts TTE and mortality. Finally, the data support prior clinical trial data, showing that oral T3 supplementation decreases early LCOS in concordance with reducing TTE.","Made available in DSpace on 2019-12-03T04:16:06Z (GMT). No. of bitstreams: 0
  Previous issue date: 2014",http://dx.doi.org/10.14238/sp15.5.2014.281-8,2338-5030,https://saripediatri.org/index.php/sari-pediatri/article/view/220/168||http://localhost:8080/xmlui/handle/123456789/2404,ind,Sari Pediatri,5,281-288,15,sepsis||faktor risiko||usia||gizi||skor PELOD,Faktor Risiko yang Berperan pada Mortalitas Sepsis,Journal Article
  Previous issue date: 2014",http://dx.doi.org/10.14238/sp15.5.2014.325-31,2338-5030,https://saripediatri.org/index.php/sari-pediatri/article/view/232/179||http://localhost:8080/xmlui/handle/123456789/3228,idn,Sari Pediatri,5,325-331,15,skoring Rondinelli||komplikasi infeksi berat||leukemia limfoblastik akut L1,Validasi Sistem Skoring Rondinelli untuk Mendeteksi Komplikasi Infeksi Berat pada Pasien Leukemia Limfoblastik Akut L1 dengan Demam Neutropenia Selama Kemoterapi Fase Induksi,Artikel Penelitian
  Previous issue date: 2012",https://doi.org/10.14238/pi52.4.2012.187-93,2338-476X,https://paediatricaindonesiana.org/index.php/paediatrica-indonesiana/article/view/395/279||http://localhost:8080/xmlui/handle/123456789/3221,eng,Paediatrica Indonesiana,4,187-193,52,tissue doppler imaging||echocardiography||systolic function||diastolic function||ferritin||beta-thalassemia major,Tissue doppler imaging in thalassemia major patients: correlation between systolic and diastolic function with serum ferritin level,Journal Article
60a62a47-2d51-4f4b-aaa6-eeab6f58fac5,123456789/779||123456789/786||123456789/638,"Kuswiyanto, Rahmat B||Putra, Sukman Tulus||Advani, Najib||Djer, Mulyadi M||Sukardi, Rubiana||Rachmat, Jusuf",2020-03-29T04:37:41Z,2020-03-29T04:37:41Z,2011-10-01,"Latar belakang: Penyakit jantung reumatik merupakan kelainan jantung didapat penyebab kesakitan dan kematian terbanyak pada anak di Indonesia. Bedah katup pada anak dengan penyakit jantung reumatik jarang dilakukan.||Tujuan: Untuk mengetahui profil klinis dan keluaran bedah katup pada anak dengan penyakit jantung reumatik.||Metode: Penelitian secara retrospektif dilakukan pada 28 anak dengan penyakit jantung reumatik yang menjalani bedah katup di RSUPN Cipto Mangunkusumo selama tahun 2003 sampai 2009. Data dikumpulkan dan dicatat berdasarkan catatan medis berupa profil klinis sebelum operasi, umur saat operasi, jenis kelamin, status klinis, dan jenis operasi, serta data ekokardiografi berupa kelainan katup dan fungsi ventrikel. Sedangkan keluaran berupa komplikasi pascaoperasi, lesi residual dan fraksi ejeksi, fraksi pemendekan serta dimensi akhir diastolik ventrikel kiri seminggu pascaoperasi.||Hasil: Umur rerata saat operasi 13,9 (SD 2,7) tahun; anak laki-laki dan perempuan sama banyak. Status klinis praoperatif fungsional kelas III dan kelas IV masing-masing terjadi pada 13 dan 9 anak. Regurgitasi mitral berat didapatkan pada 75% anak. Perbaikan katup mitral dilakukan pada 16, penggantian katup mitral pada 8, dan penggunaan katup ganda pada 4 anak. Tiga anak mengalami komplikasi berupa perdarahan, efusi pleura, dan sepsis, sedangkan satu orang meninggal. Lesi residual pascaoperasi didapatkan pada 11 anak, berupa regurgitasi dan stenosis mitral ringan, dan satu anak dengan paravalvular leak. Tidak didapatkan perbedaan yang bermakna dalam fraksi ejeksi, fraksi pemendekan dan dimensi akhir diastolik ventrikel kiri sebelum dan seminggu sesudah operasi.||Kesimpulan: Bedah katup pada anak dengan penyakit jantung reumatik mempunyai keluaran yang baik, dengan angka kematian dan komplikasi yang rendah. Pemantauan lebih lanjut diperlukan untuk menilai keluaran jangka panjang.","Made available in DSpace on 2020-03-29T04:37:41Z (GMT). No. of bitstreams: 0
  Previous issue date: 2011",http://dx.doi.org/10.14238/sp13.3.2011.200-6,2338-5030,https://saripediatri.org/index.php/sari-pediatri/article/view/433/365||http://localhost:8080/xmlui/handle/123456789/3217,idn,Sari Pediatri,3,200-206,13,bedah katup||penyakit jantung reumatik pada anak,Profil Klinis dan Keluaran Penyakit Jantung Reumatik pada Anak yang Menjalani Bedah Katup,Artikel Penelitian
2bdcbbe6-8ada-49f1-8ef2-0e9f81a43a12,123456789/779||123456789/786||123456789/638,"Djer, Mulyadi M||Mochammading||Said, Mardjanis",2020-03-29T04:37:42Z,2020-03-29T04:37:42Z,2013-07,"Background: Patent ductus arterious (PDA) is a non-cyanotic congenital heart disease (CHD) caused by the patency of the arterial duct after birth. For the last three decades, management of PDA with transcatheter closure has been gaining popularity, including in developing countries. However its effectiveness in terms of clinical outcomes and cost may vary among center and has not been thoroughly evaluated yet in Indonesia.||Objectives: To compare the cost and clinical effectiveness of PDA closure using transcatheter approach compared to surgical ligation.||Methods: We performed a retrospective review on patients underwent either transcatheter or surgical closure of PDA between January 2000 and December 2006 in Cipto Mangunkusumo Hospital,Jakarta, Indonesia. Clinical outcomes as well as cost were compared using the student T-test and Chi-square for numerical and categorical variables, respectively.||Results: During the study period, 89 patients underwent transcatheter closure using an Amplatzer® device occluder (ADO) device and 67 had surgical ligation. Successful PDA closure on first attempt was achieved in 87 (96%) and 63 (94%) children who underwent transcatheter and surgical closure, respectively (P = 1.000). Two children with unsuccessful transcatheter closure eventually had their PDA closed by surgery, whereas one child with residual PDA after surgical closure had his PDA closed by coil. No residual PDA was found in the transcatheter closure group at one-week follow up. Duration of hospitalization was significantly less for patients having transcatheter closure compared to surgery [2.7 (SD 1.5) vs. 6.6 (SD 1.5) days, P< 0.0001]. The cost for PDA closure with anAmplatzer® device was more expensive than surgical ligation [Rp. 29,930,000 (SD 57,200) vs. Rp. 12,205,000 (SD 89,300), P< 0.0001].||Conclusion: Transcatheter closure is equally effective as surgical ligation in closing the PDA. Less hospitalization is required with transcatheter closure although the cost is higher than surgical ligation.","Made available in DSpace on 2020-03-29T04:37:42Z (GMT). No. of bitstreams: 0
  Previous issue date: 2013",https://doi.org/10.14238/pi53.4.2013.239-44,2338-476X,https://paediatricaindonesiana.org/index.php/paediatrica-indonesiana/article/view/289/187||http://localhost:8080/xmlui/handle/123456789/3226,eng,Paediatrica Indonesiana,4,239-244,53,persistent ductus arteriosus||Amplatzer® duct occluder||surgical ligation||cost analysis,Transcatheter vs. surgical closure of patent ductus arteriosus: outcomes and cost analysis,Journal Article
52fa2396-0bd7-4f8f-8d96-0615f70db8d3,123456789/779||123456789/786||123456789/638||123456789/792,"Kuswiyanto, Rahmat B||Djer, Mulyadi M||Akib, Arwin A P||Sastroasmoro, Sudigdo",2020-03-29T04:37:41Z,2020-03-29T04:37:41Z,2011-05,"Background: Prevalence of cardiac complications in children 'With human immunodeficiency virus (HIV) infection have increased, in association 'With the availability of antiretroviral (ARV) therapy and the decrease of opportunistic infections. However, studies on cardiac complications in HIV patients in the various HIV clinical and immunologic categories have been limited. Furthermore, cardiac complications in Indonesian HIV infected children have never been reported.||Objectives: To determine the prevalence of cardiac complications in HIVinfected children and to compare ventricular function and dimensions based on HIV clinical and immunologic categories.||Methods: A cross-sectional study was done in the Department of Child Health, Cipto Mangunkusumo Hospital, Jakarta between October and December 2009 on 74 HIV-infected children aged below 15 years. Children with severe chronic or acute systemic diseases were excluded. Investigations included physical examinations, 12-lead electrocardiography and echocardiography to assess left ventricular dimension and ventricular function. Cardiac findings among children in different clinical and immunological categories were compared.||Results: Five children showed left ventricular fractional shortening below 25% and 16 had right ventricular dysfunction. Mean cardiac function and dimension were in the normal range. No differences in cardiac function and dimension, among the clinical HIV category groups (p>0.05) or immunologic suppression status groups (p>0.05) were observed.||Conclusion: In children 'With HIV infection, the prevalence of left ventricular dysfunction and right ventricular dysfunction was 7% and 22%, respectively. No differences in cardiac function and dimension were found among the different HIV clinical and immunological categories.","Made available in DSpace on 2020-03-29T04:37:41Z (GMT). No. of bitstreams: 0
  Previous issue date: 2011",https://doi.org/10.14238/pi51.3.2011.149-56,2338-476X,https://paediatricaindonesiana.org/index.php/paediatrica-indonesiana/article/view/717/570||http://localhost:8080/xmlui/handle/123456789/3216,eng,Paediatrica Indonesiana,3,149-156,51,HIV-infected children||ventricular function and dimension||clinical category,Ventricular function and dimensions in children with human immunodeficiency virus infection,Case Report
  Previous issue date: 2012",https://doi.org/10.14238/pi52.1.2012.57-60,2338-476X,https://paediatricaindonesiana.org/index.php/paediatrica-indonesiana/article/view/319/212||http://localhost:8080/xmlui/handle/123456789/3219,eng,Paediatrica Indonesiana,1,57-60,52,,Inhaled iloprost as part of combination therapy for persistent pulmonary hypertension of the newborn,Case Report
6695d93c-ec70-4d9b-9217-25d668cb8cd2,123456789/779||123456789/786||123456789/638,"Djer, Mulyadi M",2020-03-29T04:37:41Z,2020-03-29T04:37:41Z,2013-04,,"Made available in DSpace on 2020-03-29T04:37:41Z (GMT). No. of bitstreams: 0
9997fb68-1424-475e-b633-f9eb353adfab,123456789/779||123456789/786||123456789/638,"Djer, Mulyadi M||Sastroasmoro, Sudigdo||Madiyono, Bambang",2020-03-29T04:37:41Z,2020-03-29T04:37:41Z,2013-05,"Background: Patent ductus arteriosus (PDA) is a common congenital heart disease causing some blood in the aorta to flow into the pulmonary artery (PA), resulting in dilatation of the left atrium (IA) and left ventricle (LY), increased B-type natriuretic peptide (BNP) level, and the development of heart failure.||Objectives: To evaluate the clinical course, changes in heart size and function, and BNP level after transcatheter closure of PDA using the Amplatzer® duct occluder (ADO).||Methods: This quasi-experimental study used a one-group, pretestposttest design, and was done on PDA patients who underwent transcatheter closure using ADO. The outcomes measurements were performed four times, namely, before the procedure and at one, three, and six months after the procedure. Results were compared using a serial time analysis. Outcomes measured were heart failure scores, chest x-ray (CXR) and echocardiography findings, and plasma BNP level.||Results: There were 23 PDA patients enrolled, of which 12 were females. Subjects' median bodyweight was 11 (range 6.6 to 55) kg. Prior to PDA closure, 12 subjects had mild heart fa ilure (class II) and 7 had moderate heart failure (class III). On follow-up at one month after the procedure, all subjects had improved heart failure scores (P<0.0001), and no heart failure was found on further follow up. Likewise, there was a decreased mean cardiothoracic ratio (CTR) from 58 to 55% at 1-month (P = 0.001), and also from 55 to 52% at3-month follow up (P<0.0001), but no further decrease was found afterwards (P = 0.798). The left atrium/aorta (LA/Ao) ratio measured by echocardiography also showed a statistically significant decrease from 1.6 prior to the procedure to 1.3 (P<0.0001) in the first month, but it remained stable afterwards. Diastolic function, represented by peak E and A waves also significantly decreased from 127 and 91 cm/sec, before the procedure, to 90 and 68 cm/sec, respectively, at 1 month follow-up (P <0.0001 and P < 0.0001, respectively).However, there were no statistically significant changes in E/ A ratio, ejection fract ion and fractional shortening. Plasma BNP level significantly decreased from 58 pg/mL before the procedure to 28 pg/mL at 1 month follow-up (P= 0 .001), but no further significant decrease was observed afterwards.||Conclusion: After PDA closure with ADO, we observe significant improvements in heart failure scores, heart size, diastolic function, and BNP level of our subjects especially in the first month after the procedure.","Made available in DSpace on 2020-03-29T04:37:41Z (GMT). No. of bitstreams: 0
  Previous issue date: 2013",https://doi.org/10.14238/pi53.3.2013.181-6,2338-476X,https://paediatricaindonesiana.org/index.php/paediatrica-indonesiana/article/view/278/176||http://localhost:8080/xmlui/handle/123456789/3225,eng,Paediatrica Indonesiana,3,181-186,53,heart failure score||heart size||heart function||B-type natriuretic peptide||patent ductus arteriosus||Amplatzer® duct occluder,"Heart size, heart function, and plasma B-type natriuretic peptide levels after transcatheter closure of patent ductus arteriosus",Journal Article
  Previous issue date: 2016",https://doi.org/10.14238/pi56.1.2016.8-14,2338-476X,https://paediatricaindonesiana.org/index.php/paediatrica-indonesiana/article/view/72/51||http://localhost:8080/xmlui/handle/123456789/3239,eng,Paediatrica Indonesiana,1,8-14,56,patent ductus arteriosus||prostaglandin E2||premature infants,Prostaglandin E2 and patent ductus arteriosus in premature infants,Journal Article
  Previous issue date: 2019",https://doi.org/10.14238/pi59.6.2019.331-9,2338-476X,https://paediatricaindonesiana.org/index.php/paediatrica-indonesiana/article/view/2203/1991||http://localhost:8080/xmlui/handle/123456789/3247,eng,Paediatrica Indonesiana,6,331-339,59,premature||nCPAP||HHHFN||respiratory distress||non-inferiority trial,"Heated, humidified high-flow nasal cannula vs. nasal CPAP in infants with moderate respiratory distress",Journal Article
3bd9738e-2d9b-4fb2-b852-4b022c64f238,123456789/779||123456789/786||123456789/638,"Yantie, Ni Putu Veny Kartika||Djer, Mulyadi M||Advani, Najib||Rachmat, Jusuf",2020-03-29T04:38:36Z,2020-03-29T04:38:36Z,2016-05,"Background: The timing for Tetralogy of Fallot (ToF) repair is a subject of debate, however, in general repair before 3 years of age has resulted in good myocardial performance. Late repair has led to prolonged QRS duration, ventricular dysfunction in terms of myocardial performance index (MPI) and tricuspid annular plane systolic excursion (TAPSE), as well as longer intensive care unit (ICU) stays.||Objective: To evaluate QRS duration, right ventricular function as measured by TAPSE, and ICU length of stay (LoS) after repair of TOF performed after three years of age.||Methods: This retrospective cohort study was performed in children and adults who underwent ToF repair, with a minimum follow-up of 6 months. The TAPSE and QRS duration were evaluated during follow-up and compared between children who had the operation before vs. 3 years of age or older using Mann Whitney U and Chi-square tests.||Results: We enrolled 52 subjects who underwent ToF repair from January 2007 to June 2013 (18 in the ≤3 years-old group and 34 in the >3 years-old group). Subjects’ age at the time of repair ranged from 7 months to 25 years, with follow-up data at 24-30 months after discharge. Abnormalities of the right ventricle and left ventricle MPI were not significantly different between the two groups. However, we observed significant differences between the ≤3 years and >3 years groups in median ICU LoS [2 (range 1-9) days vs. 1.5 (range 1-46) days, respectively; (P=0.016)] and median QRS durations [118 (range 78-140) ms vs. 136 (range 80-190) ms, respectively; (P=0.039)]. The age at the time of repair did not increase the risk of having abnormal TAPSE (RR 0.85; 95%CI 0.26 to 2.79; P=0.798).||Conclusion: Tetralogy of Fallot repair after 3 years of age appears to not increase ICU LoS or is associated with lower TAPSE, but it is associated with longer QRS duration.","Made available in DSpace on 2020-03-29T04:38:36Z (GMT). No. of bitstreams: 0
  Previous issue date: 2016",https://doi.org/10.14238/pi56.3.2016.176-83,2338-476X,https://paediatricaindonesiana.org/index.php/paediatrica-indonesiana/article/view/234/138||http://localhost:8080/xmlui/handle/123456789/3241,eng,Paediatrica Indonesiana,3,176-183,56,tetralogy of Fallot||age at repair||ICU length of stay||QRS duration||TAPSE,Outcomes of Tetralogy of Fallot repair performed after three years of age,Journal Article
cc8e7f30-7185-4e5e-80cb-04cd1864fe89,123456789/779||123456789/786||123456789/638,"Djer, Mulyadi M||Idris, Nikmah Salamia||Angelina",2020-03-29T04:37:42Z,2020-03-29T04:37:42Z,2013-09,"Patent ductus arteriosus (PDA) is a common congenital heart disease, accounting for 5-10% of all congenital heart diseases. The incidence of PDA is even higher in preterm neonates, ranging from 20-60%. Closure of PDA is indicated in all cases, except for duct-dependent congenital heart diseases or PDA with Eisenmenger syndrome. In small asymptomatic PDAs, closure is indicated to prevent the risk of complications, such as endarteritis, endocarditis, aneurysm of ductus arteriosus, or congestive heart failure. In recent years, interventional cardiology has become a gold standard therapy for the majority of PDA cases beyond neonatal age. Since its introduction in 1967, many devices and methods have been developed to allow transcatheter closure of virtually all PDAs, regardless of size or configuration. Nevertheless, the tubular shape (type C) PDA, which has the highest residual shunt rate, still poses a great challenge for the interventionist. The second generation of Amplatzer® device occluders (ADO II), released in 2007, has been suggested to be effective in closing tubular PDAs.10 The purpose of this study was to report the initial clinical experience using ADO II to close a tubular type PDA in Indonesia.","Made available in DSpace on 2020-03-29T04:37:42Z (GMT). No. of bitstreams: 0
  Previous issue date: 2013",https://doi.org/10.14238/pi53.5.2013.291-4,2338-476X,https://paediatricaindonesiana.org/index.php/paediatrica-indonesiana/article/view/309/207||http://localhost:8080/xmlui/handle/123456789/3227,eng,Paediatrica Indonesiana,5,291-294,53,patent ductus arteriosus||tubular type (type C) PDA||Amplatzer® duct occluder II||interventional cardiology,Transcatheter closure of tubular type patent ductus arteriosus using Amplatzer® ductal occluder II: a case report,Journal Article
952f04f1-5f8c-4e21-ac88-65abd5589de7,123456789/779||123456789/786||123456789/638||123456789/792,"Idris, Nikmah Salamia||Cheung, Michael M H||Grobbee, Diederick E||Burgner, David||Kurniati, Nia||Djer, Mulyadi M||Uiterwaal, Cuno S P M",2020-03-29T04:38:36Z,2020-03-29T04:38:36Z,2015-08-01,"Background: Heart conduction disorders, such as prolongation of QT interval,have been reported in HIV-infected adults. However, little is known about such disorders in paediatric HIV, particularly in relation to delineation of the effects of HIV infection from treatment.||Methods: This cross-sectional study was performed in 165 perinatally-acquired HIV-infected (56 newly diagnosed antiretroviral treatment (ART) -naive, 58 ART-exposed) and 51 healthy age-matched children in Indonesia. We performed 12-lead ECG examinations to measure cardiac conduction parameters; QTc and QoTc (corrected using the Bazett’s formula), and PR intervals. The associations between HIV infection/treatment status and ECG intervals were evaluated using general linear modelling with further adjustment for potential confounders or ex-planatory variables. Findings are presented as (adjusted) mean differences between each of the two HIV groups (ART-naïve and ART-exposed) and healthy children.||Results: Compared to healthy children, QTc intervals were longer in ART-naïve (difference 18.3 milliseconds, 95% confidence interval (CI) 7.3 to 29.3) and, togreater extent, in ART-exposed HIV infected children (difference 27.9 milliseconds, 18.3 to 37.4). Following adjustment for RR interval, age, and height, prolongation of PR interval was seen only in ART-naïve HIV infected children, (difference 12.8 milliseconds, 2.3 to 23.3). Neither cardiac mass or function, high sensitivity C-reactive protein, lipid profile, gycoslyated haemoglobin levels, systolic and diastolic blood pressure, nor postnatal parental smoking exposure affected these associations. No difference in QoTc interval was observed between the groups.||Conclusions: Prolongation of QTc interval occurs in ART-naive HIV infected and,to a greater extent, in the ART-exposed children. In addition, ART-naive HIV infected children have a longer PR interval than healthy children.","Made available in DSpace on 2020-03-29T04:38:36Z (GMT). No. of bitstreams: 0
  Previous issue date: 2015",https://doi.org/10.14238/pi55.4.2015.203-8,2338-476X,https://paediatricaindonesiana.org/index.php/paediatrica-indonesiana/article/view/25/842||http://localhost:8080/xmlui/handle/123456789/3233,eng,Paediatrica Indonesiana,4,203-208,55,preterm neonatal sepsis||myocardial performance index||hs-cTnT,Ventricular function and high-sensitivity cardiac troponin T in preterm infants with neonatal sepsis,Journal Article
ce3e8691-3da8-429f-aec8-100bd5826838,123456789/779||123456789/786||123456789/638||123456789/878||123456789/769||123456789/692,"Yantie, Ni Putu Veny Kartika||Djer, Mulyadi M||Suyatna, Fransiskus D||Timan, Ina S||Putra, Sukman Tulus||Rahayuningsih, Sri Endah||Bardosono, Saptawati||Gunawijaya, Eka",2020-03-29T04:38:36Z,2020-03-29T04:38:36Z,2017-10-01,"Background: Pathophysiology and treatment of ibuprofen in the mechanism of ductal closure full-term remain unclear.||Objective: Assessing the role of prostaglandins, VEGF, IPF and the effect of oral ibuprofen in the mechanism of ductus arteriosus (DA) closure.||Method: This study conducted at three hospitals in Denpasar, Bali from March to October 2015. First design, a cross-sectional design was conducted in patients with and without PDA aged ≥ 48 h to know the role of PGE2, VEGF and IPF. Second, a double-blind randomized controlled trial design in patients with PDA to determine the effect of ibuprofen in ductal closure. Patients with PDA were randomized to have placebo or oral ibuprofen with consecutive dose of 10-5-5 mg/kg/day. All consecutive subjects performed echocardiography, PGE2, VEGF and IPF examination on the first and fourth day.||Results: The mean level of PGE2 was higher in the group with PDA than non-PDA group, while there was no difference in the mean level of VEGF and IPF. Oral ibuprofen showed no effect in reducing DA diameter. There was a moderate positive association between mean differences of PGE2 and ductal diameter after treatment. No events of oliguria, NEC and IVH were recorded in both groups.||Conclusion: A high level of PGE2 appears to play a pivotal role in DA patency of fullterm neonates. Administration of oral ibuprofen in 10-5-5 mg/kg schedule could not induce PDA closure in full-term neonates.","Made available in DSpace on 2020-03-29T04:38:36Z (GMT). No. of bitstreams: 0
  Previous issue date: 2014",http://dx.doi.org/10.14238/sp16.2.2014.71-8,2338-5030,https://saripediatri.org/index.php/sari-pediatri/article/view/180/40||http://localhost:8080/xmlui/handle/123456789/3229,idn,Sari Pediatri,2,71-78,16,penyakit ginjal kronik||anak||kesintasan,Karakteristik dan Kesintasan Penyakit Ginjal Kronik Stadium 3 dan 4 pada Anak di Departemen Ilmu Kesehatan Anak FKUI-RSCM,Artikel Penelitian
  Previous issue date: 2017",https://doi.org/10.14238/pi57.4.2017.198-204,2338-476X,https://paediatricaindonesiana.org/index.php/paediatrica-indonesiana/article/view/1350/pdf||http://localhost:8080/xmlui/handle/123456789/3244,eng,Paediatrica Indonesiana,4,198-204,57,intravenous paracetamol||patent ductus arteriosus||preterm neonates,Intravenous paracetamol and patent ductus arteriosus closure in preterm infants,Journal Article
619dec98-8926-4776-9fe8-98a8271fcdb7,123456789/779||123456789/786||123456789/638,"Djer, Mulyadi M||Saputro, Dimas Dwi||Putra, Sukman Tulus||Idris, Nikmah Salamia",2020-03-29T04:38:36Z,2020-03-29T04:38:36Z,2015-03-07,"Transcatheter closure of patent ductus arteriosus (PDA) has been suggested to be the standard treatment of PDA. Although, in general, the procedure shows a high successful rate, outcomes may vary among pediatric cardiology centers. To evaluate the effectiveness of transcatheter closure of PDA in Cipto Mangunkusumo Hospital, Jakarta, Indonesia, this was a retrospective study on patients who underwent transcatheter closure of PDA in Cipto Mangunkusumo Hospital during the period of 2002-2013. Hospital registry was reviewed and data about patients' characteristics, PDA severity, procedure, and outcomes were retrieved. There were 298 patients, of whom 90 were males, who underwent transcatheter closure of PDA during the study period. Median age was 3.4 years (1 months-18 years), and median body weight was 12 (3.6-59) kg. The diameter of PDA ranged from 1.1 to 15.4 mm with a median of 3.7 mm. Device could be deployed in all patients, in which most were the Amplatzer ductal occluder (69.8 %) and the remainders were coils. Median fluoroscopy time was 15.4 (1.5-87) min, and procedure time was 76 (30-200) min. Complete closure was achieved in most patients (97.3 %), whereas device migration occurred in a minority (0.3 %) of patients. No major complication occurred during or after the procedure. Transient anemia and bradycardia were found in 3.7 and 1.3 % patients, respectively. Most patients were discharged from the hospital at 1 day after the procedure. Transcatheter closure method is a safe and effective procedure to close PDA.","Made available in DSpace on 2020-03-29T04:38:36Z (GMT). No. of bitstreams: 0
c8b48489-b07f-4ca5-a26e-1377d39bb084,123456789/779||123456789/786||123456789/638,"Djer, Mulyadi M",2020-03-29T04:38:36Z,2020-03-29T04:38:36Z,2019-03,"Aritmia atau lebih tepatnya disebut dengan disritmia, merupakan kelainan irama jantung yang cukup sering ditemukan pada praktek sehari-hari. Gejala klinisnya bervariasi dari yang paling ringan tanpa gejala sampai bentuk yang paling berat dengan tanda gagal sirkulasi. Jenis aritmia dikelompokkan menjadi 2 kelompok yaitu takiaritmia dan bradiaritmia. Untuk menegakkan diagnosis aritmia, EKG merupakan baku emas, sehingga tata laksana sudah dapat diberikan. Sebagai praktisi, harus mampu mengenal 3 jenis aritmia yang sering ditemukan yaitu takikardia supraventrikel, takikardia ventrikel dan blok AV total. Ke 3 jenis aritmia ini kalau terlambat ditata laksana akan menimbulkan dampak klinis yang bermakna. Tata laksana meliputi tata laksana segera dengan menggunakan perasat atau obat-batan, tata laksana jangka panjang dan tata laksana invasif. Dalam menegakkan diagnosis, langkah pertama adalah menentukan jenis aritmia apakah takiaritmia atau bradiaritmia. Pada jenis takiaritmia, langkah berikutnya adalah menentukan asal/fokus iramanya apakah di atas, pada atau di bawah hubungan atrio-ventrikel (AV junction) dengan melihat kompleks QRS. Jika komplek QRS sempit artinya fokus ada di atas hubungan atrio-ventrikel, jika QRS lebar fokus ada di bawah hubungan atrio-ventrikel. Pada blok AV, langkah pertama yang perlu dilakukan adalah mengukur interval PR. Pada blok AV derajad 1, interval PR konstan tapi memanjang. Pada blok AV derajad 2, interval PR konstan kecuali Mobitz I. Pada blok AV total, interval PR tidak konstan.","Made available in DSpace on 2020-03-29T04:38:36Z (GMT). No. of bitstreams: 0
