id,collection,dc.contributor.author[en_US],dc.date.accessioned,dc.date.available,dc.date.issued,dc.description.abstract[en_US],dc.description.provenance[en],dc.identifier.doi,dc.identifier.issn,dc.identifier.uri,dc.language,dc.publisher,dc.publisher.issue,dc.publisher.page,dc.publisher.volume,dc.subject,dc.title[en_US],dc.type,dc.uri.gdrive,action
3e52349f-5221-4cbd-94bf-daf54942d93f,123456789/5795,"Pakasi, Trevino A||Putera, Ikhwanuliman||Syahmar, Ikrar||Bramantyo, Aulia A||Karyadi, Elvina||Melani, Ani||Sahiratmadja, Edhyana",2020-08-03T14:46:26Z,2020-08-03T14:46:26Z,2015,"Introduction: Bacille Calmette-Guerin (BCG) vaccination remains a routine immunization in primary care in tuberculosis (TB)-endemic areas, though several studies found that its efficacy was inconclusive. Natural resistance-asociated machrophage protein 1 (NRAMP1) polymorphism has been shown to result in higher susceptibility to TB. Information on genetic susceptibility in populations will be useful in planning the application of the BCG vaccine. The present study explored BCG efficacy in a rural Timor population with specific NRAMP1 polymorphism in a TB-endemic region of eastern Indonesia.||Methodology: A case-control study with 64 newly diagnosed pulmonary TB patients and 65 healthy controls was performed. BCG scars were examined by a physician. NRAMP1 polymorphism was evaluated using molecular methods.||Results: Half of the subjects (65; 50.4%) had a clear presenting BCG scar on the upper arm, suggesting a successful BCG vaccination. Among the subjects, D543N NRAMP1 polymorphism, history of contact with TB patients, and not having a clear BCG scar on the upper arm tended to be significantly association with active TB. The significant differences were more profound when subjects were divided based on presenting BCG scar. Subjects without clear BCG scars had significant association with developing TB disease (p = 0.014). In multivariate analysis, history of previous contact with TB patients and unclear presenting BCG scar were associated with active TB (OR 9.2; 2.0–43.8 95% CI, OR 4.8; 2.1–11.0 95% CI, respectively).||Conclusions: BCG vaccination in our population was effective for TB protection, especially in highly endemic areas of TB, regardless genetic susceptibility.","Made available in DSpace on 2020-08-03T14:46:26Z (GMT). No. of bitstreams: 0
  Previous issue date: 2015",10.3855/jidc.5047,1972-2680,https://jidc.org/index.php/journal/article/view/25596570/1229||http://localhost:8080/jspui/handle/123456789/5796,en,Journal of Infection in Developing Countries,1,42-47,9,BCG Vaccination||Tuberculosis||NRAMP1||Polymorphism,EXPUNGE1,Journal Article,"<iframe width=""420"" height=""315"" src=""https://www.youtube.com/watch?v=JJlTZEz2pLY""></iframe>",expunge
62ce8b15-3e3f-4ab2-ac3a-7979c3e98cee,123456789/5795,"Hegar, Badriul||Waspada, I Made Indra||Gunardi, Hartono||Vandenplas, Yvan",2020-08-03T14:46:26Z,2020-08-03T14:46:26Z,2015,"OBJECTIVE: To investigate the efficacy of probiotics added to oral rehydration solution and zinc in the treatment of acute infectious diarrhea in Indonesian children.||METHODS: A prospective randomized double blind placebo-controlled trial was performed to test the efficacy of a probiotic food supplement in 112 children in the Kenari subdistrict, central Jakarta, aged 6-36 mo with acute infectious diarrhea and moderate dehydration. The supplemented group was given standard therapy (oral rehydration solution and zinc) and the probiotic strains Lactobacillus (L.) rhamnosus R0011 1.9 × 109 colony forming units (cfu) and L. acidophilus R0052 0.1 × 109 cfu/d for 7 d, while the control group was given standard therapy and placebo.||RESULTS: Median duration of diarrhea was 68.5 h (range 13-165) in the supplemented and 61.5 h (range 21-166) in the control group (P = 0.596). Median daily frequency of defecation until diarrhea stopped was 5.0 in the supplemented vs. 5.5 in the control group (P = 0.795).||CONCLUSIONS: This probiotic food supplement tested did not reduce the duration of acute infectious diarrhea as compared to oral rehydration and zinc.","Made available in DSpace on 2020-08-03T14:46:26Z (GMT). No. of bitstreams: 0
  Previous issue date: 2015",10.1007/s12098-014-1408-5,0973-7693,https://www.ncbi.nlm.nih.gov/pubmed/24777621||http://localhost:8080/jspui/handle/123456789/5797,en,Indian Journal of Pediatrics,5,410-414,82,Acute Diarrhea||Acute Gastroenteritis||Lactobacillus||Oral Rehydration (solution)||Probiotic||Zinc,EXPUNGE2,Journal Article,"<iframe width=""420"" height=""315"" src=""https://www.youtube.com/watch?v=JJlTZEz2pLY""></iframe>",withdraw
